{
  "_id": "O17To5lThAvPLbvq",
  "name": "Acid Arrow",
  "ownership": {
    "default": 0,
    "Zl1BOUaPLwDEujaL": 3
  },
  "type": "spell",
  "system": {
    "description": {
      "value": "<p>A shimmering green arrow streaks toward a target within range and bursts in a spray of acid. Make a ranged spell Attack against the target. On a hit, the target takes 4d4 acid damage immediately and 2d4 acid damage at the end of its next turn. On a miss, the arrow splashes the target with acid for half as much of the initial damage and no damage at the end of its next turn.</p><p><strong>At Higher Levels.</strong> When you cast this spell using a spell slot of 3rd level or higher, the damage (both initial and later) increases by 1d4 for each slot level above 2nd.</p>",
      "chat": ""
    },
    "source": {
      "custom": "midi-qol 12.4.28",
      "book": "SRD 5.1",
      "page": "",
      "license": "CC-BY-4.0",
      "rules": "2014",
      "revision": 1
    },
    "activation": {
      "type": "action",
      "condition": "",
      "value": 1
    },
    "duration": {
      "value": "",
      "units": "inst"
    },
    "target": {
      "affects": {
        "type": "creature",
        "count": "1",
        "choice": false,
        "special": ""
      },
      "template": {
        "units": "",
        "contiguous": false,
        "type": ""
      }
    },
    "range": {
      "value": "90",
      "units": "ft",
      "special": ""
    },
    "uses": {
      "max": "",
      "recovery": [],
      "spent": 0
    },
    "level": 2,
    "school": "evo",
    "materials": {
      "value": "powdered rhubarb leaf and an adder's stomach",
      "consumed": false,
      "cost": 0,
      "supply": 0
    },
    "preparation": {
      "mode": "prepared",
      "prepared": true
    },
    "properties": [
      "vocal",
      "somatic",
      "material"
    ],
    "activities": {
      "dnd5eactivity000": {
        "_id": "dnd5eactivity000",
        "type": "attack",
        "activation": {
          "type": "action",
          "value": null,
          "override": false
        },
        "consumption": {
          "targets": [],
          "scaling": {
            "allowed": false,
            "max": ""
          },
          "spellSlot": true
        },
        "description": {
          "chatFlavor": ""
        },
        "duration": {
          "units": "inst",
          "concentration": false,
          "override": false
        },
        "effects": [
          {
            "_id": "KxbU4A3kfPPS8k6Z"
          }
        ],
        "range": {
          "override": false
        },
        "target": {
          "prompt": false,
          "template": {
            "contiguous": false,
            "units": "ft"
          },
          "affects": {
            "choice": false
          },
          "override": false
        },
        "attack": {
          "ability": "",
          "bonus": "20",
          "critical": {
            "threshold": null
          },
          "flat": false,
          "type": {
            "value": "ranged",
            "classification": "spell"
          }
        },
        "damage": {
          "critical": {
            "bonus": ""
          },
          "includeBase": true,
          "parts": [
            {
              "custom": {
                "enabled": false,
                "formula": ""
              },
              "number": 4,
              "denomination": 4,
              "bonus": "",
              "types": [
                "acid"
              ],
              "scaling": {
                "mode": "whole",
                "number": 1,
                "formula": ""
              }
            }
          ]
        },
        "uses": {
          "spent": 0,
          "recovery": [],
          "max": ""
        },
        "sort": 0,
        "useConditionText": "",
        "effectConditionText": "",
        "macroData": {
          "name": "Attack",
          "command": ""
        },
        "ignoreTraits": {
          "idi": false,
          "idr": false,
          "idv": false,
          "ida": false
        },
        "midiProperties": {
          "ignoreTraits": [],
          "triggeredActivityId": "dnd5eactivity200",
          "triggeredActivityConditionText": "",
          "triggeredActivityTargets": "missedTargets",
          "triggeredActivityRollAs": "self",
          "forceDialog": false,
          "confirmTargets": "default",
          "autoTargetType": "any",
          "autoTargetAction": "default",
          "automationOnly": false,
          "otherActivityCompatible": true,
          "identifier": "",
          "displayActivityName": false,
          "rollMode": "default"
        },
        "attackMode": "",
        "ammunition": "",
        "otherActivityId": "none",
        "otherActivityUuid": "",
        "name": "",
        "isOverTimeFlag": false,
        "overTimeProperties": {
          "saveRemoves": true,
          "preRemoveConditionText": "",
          "postRemoveConditionText": ""
        }
      },
      "dnd5eactivity200": {
        "_id": "dnd5eactivity200",
        "type": "damage",
        "activation": {
          "type": "special",
          "value": null,
          "override": true,
          "condition": ""
        },
        "consumption": {
          "targets": [],
          "scaling": {
            "allowed": false,
            "max": ""
          },
          "spellSlot": false
        },
        "description": {
          "chatFlavor": ""
        },
        "duration": {
          "units": "inst",
          "concentration": false,
          "override": false
        },
        "effects": [],
        "range": {
          "override": false
        },
        "target": {
          "prompt": true,
          "template": {
            "contiguous": false,
            "units": "ft"
          },
          "affects": {
            "choice": false
          },
          "override": false
        },
        "damage": {
          "critical": {
            "allow": false,
            "bonus": ""
          },
          "parts": [
            {
              "custom": {
                "enabled": false,
                "formula": ""
              },
              "number": 2,
              "denomination": 4,
              "bonus": "",
              "types": [
                "acid"
              ],
              "scaling": {
                "mode": "whole",
                "number": 1,
                "formula": ""
              }
            }
          ]
        },
        "uses": {
          "spent": 0,
          "recovery": [],
          "max": ""
        },
        "sort": 0,
        "useConditionText": "",
        "effectConditionText": "",
        "macroData": {
          "name": "",
          "command": ""
        },
        "ignoreTraits": {
          "idi": false,
          "idr": false,
          "idv": false,
          "ida": false
        },
        "midiProperties": {
          "ignoreTraits": [],
          "triggeredActivityId": "none",
          "triggeredActivityConditionText": "",
          "triggeredActivityTargets": "targets",
          "triggeredActivityRollAs": "self",
          "forceDialog": false,
          "confirmTargets": "never",
          "autoTargetType": "any",
          "autoTargetAction": "default",
          "automationOnly": true,
          "otherActivityCompatible": false,
          "identifier": "",
          "displayActivityName": true,
          "rollMode": "default"
        },
        "name": "Missed Damage",
        "isOverTimeFlag": false,
        "overTimeProperties": {
          "turnChoice": "start",
          "saveRemoves": true,
          "preRemoveConditionText": "",
          "postRemoveConditionText": ""
        }
      },
      "UdkVO8IGu4CUeTKk": {
        "type": "damage",
        "_id": "UdkVO8IGu4CUeTKk",
        "sort": 0,
        "activation": {
          "type": "special",
          "value": null,
          "override": true,
          "condition": ""
        },
        "consumption": {
          "scaling": {
            "allowed": false
          },
          "spellSlot": false,
          "targets": []
        },
        "description": {
          "chatFlavor": ""
        },
        "duration": {
          "units": "inst",
          "concentration": false,
          "override": false
        },
        "effects": [],
        "range": {
          "override": false
        },
        "target": {
          "template": {
            "contiguous": false,
            "units": "ft",
            "type": ""
          },
          "affects": {
            "choice": false,
            "type": "self",
            "special": ""
          },
          "override": true,
          "prompt": true
        },
        "uses": {
          "spent": 0,
          "recovery": [],
          "max": ""
        },
        "damage": {
          "critical": {
            "allow": false
          },
          "parts": [
            {
              "custom": {
                "enabled": false,
                "formula": ""
              },
              "number": 2,
              "denomination": 4,
              "bonus": "",
              "types": [
                "acid"
              ],
              "scaling": {
                "mode": "whole",
                "number": 1,
                "formula": ""
              }
            }
          ]
        },
        "useConditionText": "",
        "effectConditionText": "",
        "macroData": {
          "name": "",
          "command": ""
        },
        "ignoreTraits": {
          "idi": false,
          "idr": false,
          "idv": false,
          "ida": false
        },
        "midiProperties": {
          "ignoreTraits": [],
          "triggeredActivityId": "none",
          "triggeredActivityConditionText": "",
          "triggeredActivityTargets": "targets",
          "triggeredActivityRollAs": "self",
          "forceDialog": false,
          "confirmTargets": "never",
          "autoTargetType": "any",
          "autoTargetAction": "default",
          "automationOnly": true,
          "otherActivityCompatible": false,
          "identifier": "",
          "displayActivityName": true,
          "rollMode": "default"
        },
        "name": "Deferred Damage",
        "isOverTimeFlag": true,
        "overTimeProperties": {
          "turnChoice": "end",
          "saveRemoves": false,
          "preRemoveConditionText": "false",
          "postRemoveConditionText": "true"
        }
      }
    },
    "identifier": "acid-arrow",
    "sourceClass": "",
    "ability": ""
  },
  "sort": 150000,
  "flags": {
    "midi-qol": {
      "fumbleThreshold": null,
      "rollAttackPerTarget": "default",
      "removeAttackDamageButtons": "default",
      "forceCEOff": true,
      "itemCondition": "",
      "reactionCondition": "",
      "otherCondition": "",
      "effectCondition": "",
      "forceCEOn": false
    },
    "midiProperties": {
      "autoFailFriendly": false,
      "autoSaveFriendly": false,
      "magicdam": false,
      "magiceffect": false,
      "noConcentrationCheck": false,
      "toggleEffect": false,
      "ignoreTotalCover": false
    },
    "dnd5e": {
      "riders": {
        "activity": [],
        "effect": []
      },
      "last": {
        "dnd5eactivity000": {
          "damageType": {
            "0": "acid"
          }
        },
        "UdkVO8IGu4CUeTKk": {
          "damageType": {
            "0": "acid"
          }
        }
      }
    }
  },
  "img": "icons/magic/acid/projectile-bolts-salvo-green.webp",
  "effects": [
    {
      "name": "Acid Arrow",
      "img": "icons/magic/acid/projectile-bolts-salvo-green.webp",
      "origin": "Scene.GO63mgFDMhBfPVWf.Token.y8rDGEEuPTa8Oz4m.Actor.2W8ip8j0hvK2pQ7V.Item.hVq6KYxm3XgN7Gll",
      "transfer": false,
      "_id": "KxbU4A3kfPPS8k6Z",
      "type": "base",
      "system": {},
      "changes": [
        {
          "key": "flags.midi-qol.ActivityOverTime",
          "mode": 5,
          "value": "deferred-damage",
          "priority": 20
        }
      ],
      "disabled": false,
      "duration": {
        "startTime": null,
        "seconds": null,
        "combat": null,
        "rounds": 2,
        "turns": null,
        "startRound": null,
        "startTurn": null
      },
      "description": "",
      "tint": "#ffffff",
      "statuses": [],
      "sort": 0,
      "flags": {
        "dae": {
          "enableCondition": "",
          "disableCondition": "",
          "disableIncapacitated": false,
          "selfTarget": false,
          "selfTargetAlways": false,
          "dontApply": false,
          "stackable": "multi",
          "showIcon": false,
          "durationExpression": "",
          "macroRepeat": "none",
          "specialDuration": []
        },
        "dnd5e": {
          "riders": {
            "statuses": []
          },
          "dependents": [
            {
              "uuid": "Scene.GO63mgFDMhBfPVWf.Token.epty7QCoXN6ondzS.Actor.CUd9btBTjzY0Pdd4.ActiveEffect.NesLeDAimLAA5O1f"
            }
          ]
        },
        "core": {
          "overlay": false
        },
        "ActiveAuras": {
          "isAura": false,
          "aura": "None",
          "nameOverride": "",
          "radius": "",
          "alignment": "",
          "type": "",
          "customCheck": "",
          "ignoreSelf": false,
          "height": false,
          "hidden": false,
          "displayTemp": false,
          "hostile": false,
          "onlyOnce": false,
          "wallsBlock": "system",
          "statuses": []
        }
      },
      "_stats": {
        "compendiumSource": null,
        "duplicateSource": null,
        "coreVersion": "12.331",
        "systemId": "dnd5e",
        "systemVersion": "4.3.3",
        "createdTime": null,
        "modifiedTime": null,
        "lastModifiedBy": null
      },
      "_key": "!items.effects!O17To5lThAvPLbvq.KxbU4A3kfPPS8k6Z"
    }
  ],
  "folder": null,
  "_stats": {
    "duplicateSource": null,
    "compendiumSource": "Compendium.dnd5e.spells.Item.4H6YgYdKgnX6ZQ8M",
    "coreVersion": "12.331",
    "systemId": "dnd5e",
    "systemVersion": "4.3.3",
    "createdTime": 1740187782500,
    "modifiedTime": 1740187782522,
    "lastModifiedBy": "Zl1BOUaPLwDEujaL"
  },
  "_key": "!items!O17To5lThAvPLbvq"
}
