{
  "name": "Banishment",
  "type": "spell",
  "img": "icons/magic/control/energy-stream-link-spiral-teal.webp",
  "effects": [
    {
      "_id": "iufZU12yslQQSskX",
      "flags": {
        "dae": {
          "transfer": false,
          "stackable": "none",
          "specialDuration": [],
          "macroRepeat": "none",
          "selfTarget": false,
          "selfTargetAlways": false,
          "durationExpression": ""
        },
        "ActiveAuras": {
          "isAura": false,
          "ignoreSelf": false,
          "hidden": false,
          "height": false,
          "alignment": "",
          "type": "",
          "aura": "None",
          "radius": null,
          "save": "",
          "savedc": null
        },
        "core": {
          "statusId": ""
        }
      },
      "changes": [
        {
          "key": "macro.itemMacro",
          "mode": 0,
          "value": "@target",
          "priority": 0
        }
      ],
      "disabled": false,
      "duration": {
        "startTime": null,
        "seconds": null,
        "combat": null,
        "rounds": null,
        "turns": null,
        "startRound": null,
        "startTurn": null
      },
      "origin": "Actor.DMTSWfQs8whM5FtE.Item.cPJGG9KDdaYy3RTU",
      "tint": "#ffffff",
      "transfer": false,
      "name": "Banishment",
      "description": "",
      "statuses": [],
      "_stats": {
        "compendiumSource": null,
        "duplicateSource": null,
        "coreVersion": "12.331",
        "systemId": "dnd5e",
        "systemVersion": "4.2.2",
        "createdTime": null,
        "modifiedTime": null,
        "lastModifiedBy": null
      },
      "img": "icons/magic/control/energy-stream-link-spiral-teal.webp",
      "type": "base",
      "system": {},
      "sort": 0,
      "_key": "!items.effects!Y594kb8pSv6Q2d8R.iufZU12yslQQSskX"
    }
  ],
  "flags": {
    "dynamiceffects": {
      "equipActive": true,
      "alwaysActive": false,
      "effects": [
        {
          "modSpecKey": "macro.execute",
          "value": "Banishment @target",
          "mode": "+",
          "targetSpecific": false,
          "id": 1,
          "itemId": "pz0vjFCdPtQkdKKQ",
          "active": true,
          "_targets": [],
          "label": "Macro Execute"
        }
      ]
    },
    "betterRolls5e": {
      "critRange": {
        "type": "String",
        "value": null
      },
      "critDamage": {
        "type": "String",
        "value": ""
      },
      "quickDesc": {
        "type": "Boolean",
        "value": true,
        "altValue": true
      },
      "quickAttack": {
        "type": "Boolean",
        "value": true,
        "altValue": true
      },
      "quickSave": {
        "type": "Boolean",
        "value": true,
        "altValue": true
      },
      "quickDamage": {
        "type": "Array",
        "value": [],
        "altValue": [],
        "context": []
      },
      "quickVersatile": {
        "type": "Boolean",
        "value": false,
        "altValue": false
      },
      "quickProperties": {
        "type": "Boolean",
        "value": true,
        "altValue": true
      },
      "quickCharges": {
        "type": "Boolean",
        "value": {
          "use": false,
          "resource": false
        },
        "altValue": {
          "use": false,
          "resource": false
        }
      },
      "quickTemplate": {
        "type": "Boolean",
        "value": true,
        "altValue": true
      },
      "quickOther": {
        "type": "Boolean",
        "value": true,
        "altValue": true,
        "context": ""
      },
      "quickFlavor": {
        "type": "Boolean",
        "value": true,
        "altValue": true
      },
      "quickPrompt": {
        "type": "Boolean",
        "value": false,
        "altValue": false
      }
    },
    "dae": {
      "alwaysActive": false,
      "activeEquipped": true
    },
    "core": {},
    "midi-qol": {
      "onUseMacroName": "",
      "effectActivation": false,
      "rollAttackPerTarget": "default",
      "itemCondition": "",
      "effectCondition": "",
      "reactionCondition": "",
      "otherCondition": ""
    },
    "itemacro": {
      "macro": {
        "_data": {
          "name": "Banishment",
          "type": "script",
          "scope": "global",
          "command": "let target = canvas.tokens.get(args[1]);\n\nif (args[0] === \"on\") {\n    await target.update({hidden : true});\n    await target.actor.setFlag('world','banishment', 1);\n    ChatMessage.create({content: target.name + \"  was banished\"})\n    \n}\nif(args[0]=== \"off\") {\n target.update({hidden : false})\n target;actor.unsetFlag(args[1], 'world', 'banishment');\n ChatMessage.create({content: target.name + \"  returned\"})\n}",
          "author": "devnIbfBHb74U9Zv"
        },
        "data": {
          "name": "Banishment",
          "type": "script",
          "scope": "global",
          "command": "let target = canvas.tokens.get(args[1]);\n\nif (args[0] === \"on\") {\n    await target.update({hidden : true});\n    await target.actor.setFlag('world','banishment', 1);\n    ChatMessage.create({content: target.name + \"  was banished\"})\n    \n}\nif(args[0]=== \"off\") {\n target.update({hidden : false})\n target.actor.unsetFlag('world', 'banishment');\n ChatMessage.create({content: target.name + \"  returned\"})\n}",
          "author": "devnIbfBHb74U9Zv"
        },
        "options": {},
        "apps": {},
        "compendium": null,
        "name": "Banishment 11.0.7",
        "type": "script",
        "img": "icons/svg/dice-target.svg",
        "scope": "global",
        "command": "const version = \"11.0.7\";\ntry {\n    let target = await fromUuid(lastArgValue.tokenUuid);\n    if (args[0] === \"on\") {\n        await ChatMessage.create({content: MidiQOL.getTokenPlayerName(target) + \"  was banished\"})\n        await DAE.setTokenVisibility(lastArgValue.tokenUuid, false)\n        await DAE.setFlag(lastArgValue.tokenUuid, \"banishment\", 1);\n        \n    }\n    if(args[0]=== \"off\") {\n        await ChatMessage.create({content: MidiQOL.getTokenPlayerName(target) + \"  returned\"})\n        await DAE.setTokenVisibility(lastArgValue.tokenUuid, true)\n        await DAE.unsetFlag(lastArgValue.tokenUuid, 'banishment');\n    }\n} catch (err)  {\n    console.error(`Banishment ${version}`, err);\n}",
        "sort": 0,
        "ownership": {
          "default": 0
        },
        "flags": {},
        "_stats": {
          "systemId": null,
          "systemVersion": null,
          "coreVersion": null,
          "createdTime": null,
          "modifiedTime": null,
          "lastModifiedBy": null
        }
      }
    },
    "favtab": {
      "isFavorite": false
    },
    "cf": {
      "id": "temp_0hvf80hl1zcf",
      "color": "#000000"
    },
    "midiProperties": {
      "nodam": false,
      "fulldam": false,
      "halfdam": false,
      "rollOther": false,
      "critOther": false,
      "magicdam": false,
      "magiceffect": false,
      "concentration": false,
      "toggleEffect": false,
      "autoFailFriendly": false,
      "autoSaveFriendly": false,
      "offHandWeapon": false,
      "ignoreTotalCover": false,
      "confirmTargets": "default",
      "noConcentrationCheck": false,
      "idr": false,
      "idi": false,
      "idv": false,
      "ida": false
    },
    "dnd5e": {
      "persistSourceMigration": true,
      "migratedProperties": [
        "vocal",
        "somatic",
        "material",
        "concentration"
      ]
    },
    "tidy5e-sheet": {
      "section": "",
      "actionSection": ""
    }
  },
  "system": {
    "description": {
      "value": "<p>You attempt to send one creature that you can see within range to another plane of existence. The target must succeed on a Charisma saving throw or be banished.</p><p>If the target is native to the plane of existence you're on, you banish the target to a harmless demiplane. While there, the target is incapacitated. The target remains there until the spell ends, at which point the target reappears in the space it left or in the nearest unoccupied space if that space is occupied.</p><p>If the target is native to a different plane of existence than the one you're on, the target is banished with a faint popping noise, returning to its home plane. If the spell ends before 1 minute has passed, the target reappears in the space it left or in the nearest unoccupied space if that space is occupied. Otherwise, the target doesn't return.</p><p><strong>At Higher Levels.</strong> When you cast this spell using a spell slot of 5th level or higher, you can target one additional creature for each slot level above 4th.</p><p></p><p>midi-qol: 11.0.7<br />Scaling not implemented</p>",
      "chat": ""
    },
    "source": {
      "custom": "PHB pg. 217",
      "revision": 1,
      "rules": "2024"
    },
    "activation": {
      "type": "action",
      "condition": "",
      "value": 1
    },
    "duration": {
      "value": "1",
      "units": "minute"
    },
    "target": {
      "affects": {
        "type": "creature",
        "count": "1",
        "choice": false,
        "special": ""
      },
      "template": {
        "units": "",
        "contiguous": false,
        "type": ""
      }
    },
    "range": {
      "value": "60",
      "units": "ft",
      "special": ""
    },
    "uses": {
      "max": "",
      "spent": 0,
      "recovery": []
    },
    "ability": "",
    "level": 4,
    "school": "abj",
    "materials": {
      "value": "An item distasteful to the target",
      "consumed": false,
      "cost": 0,
      "supply": 0
    },
    "preparation": {
      "mode": "prepared",
      "prepared": false
    },
    "activities": {
      "dnd5eactivity000": {
        "_id": "dnd5eactivity000",
        "type": "save",
        "activation": {
          "type": "action",
          "value": null,
          "override": false
        },
        "consumption": {
          "targets": [],
          "scaling": {
            "allowed": false,
            "max": ""
          },
          "spellSlot": true
        },
        "description": {
          "chatFlavor": ""
        },
        "duration": {
          "units": "inst",
          "concentration": false,
          "override": false
        },
        "effects": [
          {
            "_id": "iufZU12yslQQSskX",
            "onSave": false
          }
        ],
        "range": {
          "override": false
        },
        "target": {
          "prompt": true,
          "template": {
            "contiguous": false,
            "units": "ft"
          },
          "affects": {
            "choice": false
          },
          "override": false
        },
        "uses": {
          "spent": 0,
          "max": "",
          "recovery": []
        },
        "damage": {
          "onSave": "half",
          "parts": [],
          "critical": {
            "allow": false
          }
        },
        "save": {
          "ability": [
            "cha"
          ],
          "dc": {
            "calculation": "spellcasting",
            "formula": "16"
          }
        },
        "sort": 0,
        "useConditionText": "",
        "effectConditionText": "",
        "macroData": {
          "name": "",
          "command": ""
        },
        "ignoreTraits": {
          "idi": false,
          "idr": false,
          "idv": false,
          "ida": false
        },
        "midiProperties": {
          "forceDialog": false,
          "confirmTargets": "default",
          "automationOnly": false,
          "identifier": "",
          "ignoreTraits": [],
          "triggeredActivityId": "none",
          "triggeredActivityConditionText": "",
          "triggeredActivityTargets": "targets",
          "triggeredActivityRollAs": "self",
          "autoTargetType": "any",
          "autoTargetAction": "default",
          "otherActivityCompatible": true
        }
      }
    },
    "identifier": "banishment",
    "properties": []
  },
  "_stats": {
    "compendiumSource": null,
    "duplicateSource": null,
    "coreVersion": "12.331",
    "systemId": "dnd5e",
    "systemVersion": "4.2.2",
    "createdTime": 1738555840264,
    "modifiedTime": 1738555840264,
    "lastModifiedBy": "Zl1BOUaPLwDEujaL"
  },
  "folder": "qF3UYnzAAbVavYSR",
  "_id": "Y594kb8pSv6Q2d8R",
  "sort": 1200000,
  "ownership": {
    "default": 0,
    "Zl1BOUaPLwDEujaL": 3
  },
  "_key": "!items!Y594kb8pSv6Q2d8R"
}
