{
  "name": "Bracers of Archery v4",
  "type": "equipment",
  "img": "icons/equipment/wrist/bracer-studded-leather-steel.webp",
  "effects": [
    {
      "_id": "5YQAiFBcKFBjPEnq",
      "flags": {
        "dae": {
          "stackable": "none",
          "transfer": true,
          "durationExpression": "",
          "macroRepeat": "none",
          "specialDuration": [],
          "selfTarget": false,
          "selfTargetAlways": false
        },
        "core": {},
        "ActiveAuras": {
          "isAura": false,
          "aura": "None",
          "radius": null,
          "alignment": "",
          "type": "",
          "ignoreSelf": false,
          "height": false,
          "hidden": false,
          "displayTemp": false,
          "hostile": false,
          "onlyOnce": false
        }
      },
      "changes": [
        {
          "key": "system.bonuses.rwak.damage",
          "mode": 0,
          "value": "+2",
          "priority": 20
        },
        {
          "key": "system.traits.weaponProf.value",
          "mode": 2,
          "value": "shortbow",
          "priority": 20
        },
        {
          "key": "system.traits.weaponProf.value",
          "mode": 2,
          "value": "longbow",
          "priority": 20
        }
      ],
      "disabled": false,
      "duration": {
        "startTime": 47178646117,
        "seconds": null,
        "combat": null,
        "rounds": null,
        "turns": null,
        "startRound": 249,
        "startTurn": 0
      },
      "tint": "#ffffff",
      "transfer": true,
      "origin": "Actor.BogmFuNh1wswTouJ.Item.bxygzHyGsUWztdkU",
      "name": "Bracers of Archery",
      "description": "",
      "statuses": [],
      "_stats": {
        "compendiumSource": null,
        "duplicateSource": null,
        "coreVersion": "12.331",
        "systemId": "dnd5e",
        "systemVersion": "4.2.2",
        "createdTime": null,
        "modifiedTime": null,
        "lastModifiedBy": null
      },
      "img": "icons/equipment/wrist/bracer-studded-leather-steel.webp",
      "type": "base",
      "system": {},
      "sort": 0,
      "_key": "!items.effects!PK7zGIdSuauon3TR.5YQAiFBcKFBjPEnq"
    }
  ],
  "flags": {
    "magicitems": {
      "enabled": false,
      "equipped": false,
      "attuned": false,
      "charges": "0",
      "chargeType": "c1",
      "destroy": false,
      "destroyFlavorText": "reaches 0 charges: it crumbles into ashes and is destroyed.",
      "rechargeable": false,
      "recharge": "0",
      "rechargeType": "t1",
      "rechargeUnit": "r1",
      "sorting": "l"
    },
    "dae": {
      "activeEquipped": false,
      "alwaysActive": false
    },
    "core": {
      "sourceId": "Item.93tqVAgnT6DsLnjy"
    },
    "scene-packer": {
      "sourceId": "Item.2l5MeYXc7ErrgZuQ",
      "hash": "bf34b626cf968227dcc074f2868bd6a7a2f3c253"
    },
    "exportSource": {
      "world": "tp-game-v3",
      "system": "dnd5e",
      "coreVersion": "9.249",
      "systemVersion": "1.5.7"
    },
    "cf": {
      "id": "temp_mxc6kjqa6kp"
    },
    "betterRolls5e": {
      "quickDesc": {
        "value": true,
        "altValue": true
      },
      "quickProperties": {
        "value": true,
        "altValue": true
      },
      "quickOther": {
        "value": true,
        "altValue": true
      },
      "quickFlavor": {
        "value": true,
        "altValue": true
      },
      "quickCharges": {
        "value": {
          "quantity": false
        },
        "altValue": {
          "quantity": false
        }
      }
    },
    "midiProperties": {
      "confirmTargets": "default",
      "autoFailFriendly": false,
      "autoSaveFriendly": false,
      "critOther": false,
      "offHandWeapon": false,
      "magicdam": false,
      "magiceffect": false,
      "noConcentrationCheck": false,
      "toggleEffect": false,
      "ignoreTotalCover": false,
      "idr": false,
      "idi": false,
      "idv": false,
      "ida": false
    },
    "midi-qol": {
      "rollAttackPerTarget": "default",
      "itemCondition": "",
      "effectCondition": "",
      "reactionCondition": "",
      "otherCondition": "",
      "AoETargetType": "any",
      "AoETargetTypeIncludeSelf": true,
      "autoTarget": "default",
      "removeAttackDamageButtons": "default"
    },
    "tidy5e-sheet": {
      "section": "",
      "actionSection": ""
    },
    "dnd5e": {
      "riders": {
        "activity": []
      }
    }
  },
  "system": {
    "description": {
      "value": "<p><em>Wondrous item, (requires attunement)</em></p>\n<p>While wearing these bracers, you have proficiency with the longbow and shortbow, and you gain a +2 bonus to damage rolls on ranged attacks made with such weapons.</p>",
      "chat": ""
    },
    "source": {
      "custom": "DMG pg. 156",
      "revision": 1,
      "rules": "2024"
    },
    "quantity": 1,
    "weight": {
      "value": 1,
      "units": "lb"
    },
    "price": {
      "value": 1500,
      "denomination": "gp"
    },
    "attunement": "required",
    "rarity": "uncommon",
    "identified": true,
    "cover": null,
    "crewed": false,
    "uses": {
      "max": "",
      "spent": 0,
      "recovery": []
    },
    "armor": {
      "value": 0,
      "dex": 0,
      "magicalBonus": null
    },
    "hp": {
      "value": 0,
      "max": 0,
      "dt": null,
      "conditions": ""
    },
    "speed": {
      "value": null,
      "conditions": ""
    },
    "strength": 0,
    "proficient": 1,
    "unidentified": {
      "description": ""
    },
    "type": {
      "value": "clothing",
      "baseItem": ""
    },
    "activities": {},
    "identifier": "bracers-of-archery-10010",
    "container": null,
    "properties": [
      "mgc"
    ],
    "attuned": true,
    "equipped": false
  },
  "_stats": {
    "compendiumSource": "Item.93tqVAgnT6DsLnjy",
    "duplicateSource": null,
    "coreVersion": "12.331",
    "systemId": "dnd5e",
    "systemVersion": "4.2.2",
    "createdTime": 1738555836908,
    "modifiedTime": 1738555836908,
    "lastModifiedBy": "Zl1BOUaPLwDEujaL"
  },
  "folder": "5Ok9Jbl5nOokCkqf",
  "_id": "PK7zGIdSuauon3TR",
  "sort": 300000,
  "ownership": {
    "default": 0,
    "Zl1BOUaPLwDEujaL": 3
  },
  "_key": "!items!PK7zGIdSuauon3TR"
}
