{
  "name": "Chill Touch v4",
  "type": "spell",
  "system": {
    "description": {
      "value": "<p>You create a ghostly, skeletal hand in the space of a creature within range. Make a ranged spell attack against the creature to assail it with the chill of the grave. On a hit, the target takes 1d8 Necrotic damage, and it can't regain hit points until the start of your next turn. Until then, the hand clings to the target.</p><p>If you hit an undead target, it also has disadvantage on attack rolls against you until the end of your next turn.</p><p>This spell's damage increases by 1d8 when you reach 5th level (2d8), 11th level (3d8), and 17th level (4d8).</p><p></p><p>Midi-qol: 11.0.7: two effects are created since they expire at different times</p>",
      "chat": ""
    },
    "source": {
      "custom": "PHB pg. 221",
      "revision": 1,
      "rules": "2024"
    },
    "activation": {
      "type": "action",
      "condition": "",
      "value": 1
    },
    "duration": {
      "value": "1",
      "units": "round"
    },
    "target": {
      "affects": {
        "type": "creature",
        "count": "1",
        "choice": false,
        "special": ""
      },
      "template": {
        "units": "",
        "contiguous": false,
        "type": ""
      }
    },
    "range": {
      "value": "120",
      "units": "ft",
      "special": ""
    },
    "uses": {
      "max": "",
      "spent": 0,
      "recovery": []
    },
    "ability": "",
    "level": 0,
    "school": "nec",
    "materials": {
      "value": "",
      "consumed": false,
      "cost": 0,
      "supply": 0
    },
    "preparation": {
      "mode": "prepared",
      "prepared": true
    },
    "activities": {
      "dnd5eactivity000": {
        "_id": "dnd5eactivity000",
        "type": "attack",
        "activation": {
          "type": "action",
          "value": null,
          "override": false
        },
        "consumption": {
          "targets": [],
          "scaling": {
            "allowed": false,
            "max": ""
          },
          "spellSlot": true
        },
        "description": {
          "chatFlavor": ""
        },
        "duration": {
          "units": "inst",
          "concentration": false,
          "override": false
        },
        "effects": [
          {
            "_id": "fLDUdp710OrGuQKT"
          },
          {
            "_id": "u1vxcPNPV0mLIfXo"
          }
        ],
        "range": {
          "override": false
        },
        "target": {
          "prompt": true,
          "template": {
            "contiguous": false,
            "units": "ft"
          },
          "affects": {
            "choice": false
          },
          "override": false
        },
        "uses": {
          "spent": 0,
          "max": "",
          "recovery": []
        },
        "attack": {
          "ability": "",
          "bonus": "",
          "critical": {
            "threshold": null
          },
          "flat": false,
          "type": {
            "value": "ranged",
            "classification": "spell"
          }
        },
        "damage": {
          "critical": {
            "bonus": ""
          },
          "includeBase": true,
          "parts": [
            {
              "number": 1,
              "denomination": 8,
              "bonus": "",
              "types": [
                "necrotic"
              ],
              "custom": {
                "enabled": false,
                "formula": ""
              },
              "scaling": {
                "mode": "whole",
                "number": 1,
                "formula": ""
              }
            }
          ]
        },
        "sort": 0,
        "useConditionText": "",
        "effectConditionText": "",
        "attackMode": "oneHanded",
        "ammunition": "",
        "otherActivityUuid": "",
        "macroData": {
          "name": "",
          "command": ""
        },
        "ignoreTraits": {
          "idi": false,
          "idr": false,
          "idv": false,
          "ida": false
        },
        "midiProperties": {
          "forceDialog": false,
          "confirmTargets": "default",
          "automationOnly": false,
          "identifier": "",
          "ignoreTraits": [],
          "triggeredActivityId": "none",
          "triggeredActivityConditionText": "",
          "triggeredActivityTargets": "targets",
          "triggeredActivityRollAs": "self",
          "autoTargetType": "any",
          "autoTargetAction": "default",
          "otherActivityCompatible": true
        },
        "otherActivityId": ""
      }
    },
    "identifier": "chill-touch",
    "properties": [],
    "sourceClass": "rogue"
  },
  "flags": {
    "core": {},
    "midi-qol": {
      "fumbleThreshold": null,
      "effectActivation": true,
      "rollAttackPerTarget": "default",
      "removeAttackDamageButtons": "default",
      "itemCondition": "",
      "reactionCondition": "",
      "otherCondition": "",
      "effectCondition": ""
    },
    "midiProperties": {
      "nodam": false,
      "fulldam": false,
      "halfdam": false,
      "rollOther": false,
      "critOther": false,
      "magicdam": false,
      "magiceffect": false,
      "concentration": false,
      "toggleEffect": false,
      "autoFailFriendly": false,
      "autoSaveFriendly": false,
      "offHandWeapon": false,
      "ignoreTotalCover": false,
      "confirmTargets": "default",
      "noConcentrationCheck": false,
      "idr": false,
      "idi": false,
      "idv": false,
      "ida": false
    },
    "cf": {
      "id": "temp_0hvf80hl1zcf"
    },
    "dnd5e": {
      "persistSourceMigration": true,
      "migratedProperties": [
        "vocal",
        "somatic"
      ],
      "last": {
        "dnd5eactivity000": {
          "attackMode": "oneHanded",
          "damageType": {
            "0": "necrotic"
          }
        }
      },
      "dependents": [
        {
          "uuid": "Scene.GO63mgFDMhBfPVWf.Token.y8rDGEEuPTa8Oz4m.Actor.2W8ip8j0hvK2pQ7V.ActiveEffect.OQWn48cnSJ3IoTjq"
        },
        {
          "uuid": "Scene.GO63mgFDMhBfPVWf.Token.y8rDGEEuPTa8Oz4m.Actor.2W8ip8j0hvK2pQ7V.ActiveEffect.EnKNr3XUE1Uhcrnt"
        }
      ]
    },
    "tidy5e-sheet": {
      "section": "",
      "actionSection": ""
    }
  },
  "img": "icons/magic/water/projectile-ice-faceted-blue.webp",
  "effects": [
    {
      "origin": "Actor.iO04pmtZ0N3gTAk9.Item.kBdike3EFVRSdeLp",
      "duration": {
        "rounds": 2,
        "startTime": null,
        "seconds": null,
        "combat": null,
        "turns": null,
        "startRound": null,
        "startTurn": null
      },
      "disabled": false,
      "_id": "fLDUdp710OrGuQKT",
      "changes": [
        {
          "key": "flags.midi-qol.disadvantage.attack.mwak",
          "mode": 0,
          "value": "targetActorUuid === \"@actorUuid\" && details.type.value === \"undead\"",
          "priority": 20
        }
      ],
      "tint": "#ffffff",
      "transfer": false,
      "flags": {
        "dae": {
          "selfTarget": false,
          "selfTargetAlways": false,
          "stackable": "none",
          "durationExpression": "",
          "macroRepeat": "none",
          "specialDuration": [
            "turnEndSource"
          ]
        },
        "core": {
          "statusId": ""
        }
      },
      "name": "Chill Touch - Attack Disadvantage",
      "description": "",
      "statuses": [],
      "_stats": {
        "compendiumSource": null,
        "duplicateSource": null,
        "coreVersion": "12.331",
        "systemId": "dnd5e",
        "systemVersion": "4.2.2",
        "createdTime": null,
        "modifiedTime": null,
        "lastModifiedBy": null
      },
      "img": "icons/magic/water/projectile-ice-faceted-blue.webp",
      "type": "base",
      "system": {},
      "sort": 0,
      "_key": "!items.effects!SNhuBXUyQNl1X0pe.fLDUdp710OrGuQKT"
    },
    {
      "origin": "Actor.iO04pmtZ0N3gTAk9.Item.kBdike3EFVRSdeLp",
      "duration": {
        "startTime": null,
        "seconds": null,
        "combat": null,
        "rounds": 2,
        "turns": null,
        "startRound": null,
        "startTurn": null
      },
      "disabled": false,
      "_id": "u1vxcPNPV0mLIfXo",
      "changes": [
        {
          "key": "system.traits.di.value",
          "mode": 0,
          "value": "healing",
          "priority": 20
        }
      ],
      "tint": "#ffffff",
      "transfer": false,
      "flags": {
        "dae": {
          "selfTarget": false,
          "selfTargetAlways": false,
          "stackable": "none",
          "durationExpression": "",
          "macroRepeat": "none",
          "specialDuration": [
            "turnStartSource"
          ]
        },
        "core": {
          "statusId": ""
        }
      },
      "name": "Chill Touch - No Healing",
      "description": "",
      "statuses": [],
      "_stats": {
        "compendiumSource": null,
        "duplicateSource": null,
        "coreVersion": "12.331",
        "systemId": "dnd5e",
        "systemVersion": "4.2.2",
        "createdTime": null,
        "modifiedTime": null,
        "lastModifiedBy": null
      },
      "img": "icons/magic/water/projectile-ice-faceted-blue.webp",
      "type": "base",
      "system": {},
      "sort": 0,
      "_key": "!items.effects!SNhuBXUyQNl1X0pe.u1vxcPNPV0mLIfXo"
    }
  ],
  "_stats": {
    "compendiumSource": null,
    "duplicateSource": null,
    "coreVersion": "12.331",
    "systemId": "dnd5e",
    "systemVersion": "4.2.2",
    "createdTime": 1738555840264,
    "modifiedTime": 1738555840264,
    "lastModifiedBy": "Zl1BOUaPLwDEujaL"
  },
  "folder": "qF3UYnzAAbVavYSR",
  "_id": "SNhuBXUyQNl1X0pe",
  "sort": 900000,
  "ownership": {
    "default": 0,
    "Zl1BOUaPLwDEujaL": 3
  },
  "_key": "!items!SNhuBXUyQNl1X0pe"
}
