{
  "name": "Dragon Slayer Longsword v4",
  "type": "weapon",
  "img": "icons/skills/melee/strike-axe-blood-red.webp",
  "effects": [],
  "flags": {
    "core": {
      "sheetClass": "dnd5e.Tidy5eItemSheetClassic"
    },
    "midi-qol": {
      "onUseMacroName": "",
      "criticalThreshold": "20",
      "effectActivation": false,
      "fumbleThreshold": null,
      "rollAttackPerTarget": "default",
      "removeAttackDamageButtons": "default",
      "itemCondition": "",
      "otherCondition": "raceOrType.includes(\"dragon\") && (item.attuned || item.attunement !== \"required\")",
      "effectCondition": "",
      "reactionCondition": ""
    },
    "magicitems": {
      "enabled": false,
      "equipped": false,
      "attuned": false,
      "charges": "0",
      "chargeType": "c1",
      "destroy": false,
      "destroyFlavorText": "reaches 0 charges: it crumbles into ashes and is destroyed.",
      "rechargeable": false,
      "recharge": "0",
      "rechargeType": "t1",
      "rechargeUnit": "r1",
      "sorting": "l"
    },
    "itemacro": {
      "macro": {
        "data": {
          "_id": null,
          "name": "Dragon Slayer Longsword MQ 0.8.55",
          "type": "script",
          "author": "devnIbfBHb74U9Zv",
          "img": "icons/svg/dice-target.svg",
          "scope": "global",
          "command": "",
          "folder": null,
          "sort": 0,
          "permission": {
            "default": 0
          },
          "flags": {}
        }
      }
    },
    "favtab": {
      "isFavorite": true
    },
    "betterRolls5e": {
      "quickDamage": {
        "context": {
          "0": ""
        },
        "value": {
          "0": true
        },
        "altValue": {
          "0": true
        }
      },
      "quickOther": {
        "context": "",
        "value": true,
        "altValue": true
      },
      "quickDesc": {
        "value": false,
        "altValue": false
      },
      "quickAttack": {
        "value": true,
        "altValue": true
      },
      "quickProperties": {
        "value": true,
        "altValue": true
      },
      "quickVersatile": {
        "value": false,
        "altValue": false
      },
      "quickFlavor": {
        "value": true,
        "altValue": true
      },
      "quickCharges": {
        "value": {
          "quantity": false
        },
        "altValue": {
          "quantity": false
        }
      }
    },
    "cf": {
      "id": "temp_mxc6kjqa6kp",
      "color": "#000000"
    },
    "midiProperties": {
      "fulldam": false,
      "halfdam": false,
      "nodam": false,
      "critOther": false,
      "rollOther": true,
      "magicdam": false,
      "magiceffect": false,
      "concentration": false,
      "toggleEffect": false,
      "confirmTargets": "default",
      "autoFailFriendly": false,
      "autoSaveFriendly": false,
      "offHandWeapon": false,
      "noConcentrationCheck": false,
      "ignoreTotalCover": false,
      "idr": false,
      "idi": false,
      "idv": false,
      "ida": false
    },
    "scene-packer": {
      "hash": "6aa5fabd27368a9dc9d2fb8ebea12c381ec09d5e",
      "sourceId": "Compendium.midi-qol.midiqol-sample-items.Item.vtgp0tzcLKdIxO4s"
    },
    "dnd5e": {
      "persistSourceMigration": true,
      "riders": {
        "activity": [],
        "effect": []
      },
      "last": {
        "dnd5eactivity000": {
          "attackMode": "oneHanded",
          "damageType": {
            "0": "slashing"
          }
        },
        "9uK3kf0FIqhFjYtS": {
          "damageType": {
            "0": "slashing"
          }
        }
      }
    },
    "tidy5e-sheet": {
      "section": "",
      "actionSection": ""
    }
  },
  "system": {
    "description": {
      "value": "<p><em>(Requires attunement)</em></p><p>You gain a +1 bonus to attack and damage rolls made with this magic weapon.</p><p>When you hit a dragon with this weapon, the dragon takes an extra 3d6 damage of the weapon's type. For the purpose of this weapon, \"dragon\" refers to any creature with the dragon type, including dragon turtles and wyverns.</p><p><strong>midi-qol</strong>: Requires dnd5e 3.2+</p>",
      "chat": ""
    },
    "source": {
      "custom": "DMG pg. 166",
      "revision": 1,
      "rules": "2024"
    },
    "quantity": 1,
    "weight": {
      "value": 3,
      "units": "lb"
    },
    "price": {
      "value": 8000,
      "denomination": "gp"
    },
    "attunement": "required",
    "rarity": "rare",
    "identified": true,
    "cover": null,
    "crewed": false,
    "range": {
      "value": null,
      "long": 0,
      "units": "ft",
      "reach": 5
    },
    "uses": {
      "max": "",
      "spent": 0,
      "recovery": []
    },
    "damage": {
      "versatile": {
        "number": 1,
        "denomination": 0,
        "bonus": "@mod",
        "types": [],
        "custom": {
          "enabled": false,
          "formula": ""
        },
        "scaling": {
          "mode": "",
          "number": null,
          "formula": ""
        }
      },
      "base": {
        "number": 1,
        "denomination": 8,
        "bonus": "@mod",
        "types": [
          "slashing"
        ],
        "custom": {
          "enabled": false,
          "formula": "1d8 + @mod"
        },
        "scaling": {
          "mode": "",
          "number": null,
          "formula": ""
        }
      }
    },
    "armor": {
      "value": 10
    },
    "hp": {
      "value": 0,
      "max": 0,
      "dt": null,
      "conditions": ""
    },
    "properties": [
      "mgc",
      "ver"
    ],
    "proficient": 1,
    "unidentified": {
      "description": ""
    },
    "type": {
      "value": "martialM",
      "baseItem": "longsword"
    },
    "container": null,
    "magicalBonus": 1,
    "activities": {
      "dnd5eactivity000": {
        "_id": "dnd5eactivity000",
        "type": "attack",
        "activation": {
          "type": "action",
          "value": 1,
          "condition": "",
          "override": false
        },
        "consumption": {
          "targets": [],
          "scaling": {
            "allowed": false,
            "max": ""
          },
          "spellSlot": true
        },
        "description": {
          "chatFlavor": ""
        },
        "duration": {
          "concentration": false,
          "value": "",
          "units": "inst",
          "special": "",
          "override": false
        },
        "effects": [],
        "range": {
          "units": "ft",
          "special": "",
          "override": false,
          "value": ""
        },
        "target": {
          "template": {
            "count": "",
            "contiguous": false,
            "type": "",
            "size": "",
            "width": "",
            "height": "",
            "units": ""
          },
          "affects": {
            "count": "1",
            "type": "creature",
            "choice": false,
            "special": ""
          },
          "prompt": true,
          "override": false
        },
        "uses": {
          "spent": 0,
          "max": "",
          "recovery": []
        },
        "attack": {
          "ability": "",
          "bonus": "1",
          "critical": {
            "threshold": null
          },
          "flat": false,
          "type": {
            "value": "melee",
            "classification": "weapon"
          }
        },
        "damage": {
          "critical": {
            "bonus": ""
          },
          "includeBase": true,
          "parts": []
        },
        "sort": 0,
        "forceDialog": false,
        "attackMode": "oneHanded",
        "useConditionText": "",
        "effectConditionText": "",
        "ammunition": "",
        "otherActivityUuid": "",
        "name": ""
      },
      "9uK3kf0FIqhFjYtS": {
        "type": "damage",
        "_id": "9uK3kf0FIqhFjYtS",
        "sort": 0,
        "activation": {
          "type": "action",
          "value": null,
          "override": false,
          "condition": ""
        },
        "consumption": {
          "scaling": {
            "allowed": false
          },
          "spellSlot": true,
          "targets": []
        },
        "description": {
          "chatFlavor": ""
        },
        "duration": {
          "units": "inst",
          "concentration": false,
          "override": false
        },
        "effects": [],
        "range": {
          "override": false
        },
        "target": {
          "template": {
            "contiguous": false,
            "units": "ft",
            "type": ""
          },
          "affects": {
            "choice": false,
            "count": "",
            "type": ""
          },
          "override": false,
          "prompt": true
        },
        "uses": {
          "spent": 0,
          "recovery": [],
          "max": ""
        },
        "damage": {
          "critical": {
            "allow": true,
            "bonus": ""
          },
          "parts": [
            {
              "custom": {
                "enabled": false,
                "formula": ""
              },
              "number": 3,
              "denomination": 6,
              "bonus": "",
              "types": [
                "slashing"
              ],
              "scaling": {
                "number": 1
              }
            }
          ]
        },
        "useConditionText": "raceOrType.includes(\"dragon\") && (item.attuned || item.attunement !== \"required\")",
        "effectConditionText": "",
        "name": "Bonus Damage",
        "forceDialog": false
      }
    },
    "identifier": "dragon-slayer-longsword-11438",
    "ammunition": {},
    "mastery": "",
    "attuned": true,
    "equipped": true
  },
  "_stats": {
    "compendiumSource": null,
    "duplicateSource": null,
    "coreVersion": "12.331",
    "systemId": "dnd5e",
    "systemVersion": "4.1.1",
    "createdTime": 1731498472799,
    "modifiedTime": 1731498472799,
    "lastModifiedBy": "Zl1BOUaPLwDEujaL"
  },
  "folder": "fZIl4G4qj3C894LI",
  "_id": "btOaDAnFRQOJZRvY",
  "sort": 1500000,
  "ownership": {
    "default": 0,
    "Zl1BOUaPLwDEujaL": 3
  },
  "_key": "!items!btOaDAnFRQOJZRvY"
}
