{
  "name": "Dragon Slayer - Ammunition - 12.4.15",
  "type": "weapon",
  "img": "modules/dnd-dungeon-masters-guide/assets/icons/items/dragon-slayer-greatsword.webp",
  "system": {
    "activities": {
      "YCd17eWSMhL1ZP9b": {
        "type": "enchant",
        "name": "Dragon Slayer",
        "_id": "YCd17eWSMhL1ZP9b",
        "sort": 0,
        "activation": {
          "type": "action",
          "value": null,
          "override": false,
          "condition": ""
        },
        "consumption": {
          "scaling": {
            "allowed": false
          },
          "spellSlot": true,
          "targets": []
        },
        "description": {
          "chatFlavor": ""
        },
        "duration": {
          "units": "inst",
          "concentration": false,
          "override": false
        },
        "effects": [
          {
            "_id": "ZveR6kPKafjcwQdY",
            "level": {
              "min": null,
              "max": null
            },
            "riders": {
              "activity": [
                "TieUNbj2BQzgRlzt"
              ],
              "effect": [],
              "item": []
            }
          }
        ],
        "range": {
          "override": false
        },
        "target": {
          "template": {
            "contiguous": false,
            "units": "ft",
            "type": ""
          },
          "affects": {
            "choice": false,
            "count": "",
            "type": ""
          },
          "override": false,
          "prompt": false
        },
        "uses": {
          "spent": 0,
          "recovery": [],
          "max": ""
        },
        "enchant": {
          "identifier": ""
        },
        "restrictions": {
          "allowMagical": true,
          "categories": [
            "ammo"
          ],
          "properties": [],
          "type": "consumable"
        }
      },
      "TieUNbj2BQzgRlzt": {
        "type": "save",
        "activation": {
          "type": "special",
          "value": 1,
          "condition": "",
          "override": false
        },
        "consumption": {
          "targets": [],
          "scaling": {
            "allowed": false,
            "max": ""
          },
          "spellSlot": true
        },
        "description": {
          "chatFlavor": ""
        },
        "duration": {
          "concentration": false,
          "value": "",
          "units": "inst",
          "special": "",
          "override": false
        },
        "effects": [],
        "range": {
          "units": "any",
          "special": "",
          "override": false
        },
        "target": {
          "template": {
            "count": "",
            "contiguous": false,
            "type": "",
            "size": "",
            "width": "",
            "height": "",
            "units": ""
          },
          "affects": {
            "count": "1",
            "type": "creature",
            "choice": false,
            "special": ""
          },
          "prompt": false,
          "override": false
        },
        "uses": {
          "spent": 0,
          "max": "",
          "recovery": []
        },
        "damage": {
          "onSave": "half",
          "parts": [
            {
              "custom": {
                "enabled": false,
                "formula": ""
              },
              "number": 6,
              "denomination": 10,
              "bonus": "",
              "types": [
                "piercing"
              ],
              "scaling": {
                "number": 1
              }
            }
          ],
          "critical": {
            "allow": false,
            "bonus": ""
          }
        },
        "save": {
          "ability": [
            "con"
          ],
          "dc": {
            "calculation": "",
            "formula": "17"
          }
        },
        "name": "Slaying Damage",
        "sort": 0,
        "useConditionText": "[\"dragon\"].includes(raceOrType)",
        "effectConditionText": "",
        "midiProperties": {
          "automationOnly": true,
          "forceDialog": false,
          "confirmTargets": "default",
          "identifier": ""
        },
        "macroData": {
          "name": "",
          "command": ""
        },
        "ignoreTraits": {
          "idi": false,
          "idr": false,
          "idv": false,
          "ida": false
        },
        "_id": "TieUNbj2BQzgRlzt",
        "img": "",
        "appliedEffects": []
      }
    },
    "uses": {
      "spent": 0,
      "recovery": [],
      "max": ""
    },
    "description": {
      "value": "<p><em>Weapon (Any Simple or Martial), Rare</em></p><p>You gain a +1 bonus to attack rolls and damage rolls made with this magic weapon.</p><p>The weapon deals an extra 6d6 damage on a failed save or half as much on a save, of the weapon’s type if the target is a Dragon.</p><p>Midi: To use the item simply drag the dragon slayer effect to an ammunition item and it will do a bonus 6d6 damage to dragons, half as much on a save.</p><p>This is based on a idea from the new Dungeons Master's Guide foundry premium content which has lots of clever ideas in it.</p>",
      "chat": ""
    },
    "identifier": "dragon-slayer",
    "source": {
      "revision": 1,
      "rules": "2024"
    },
    "identified": true,
    "unidentified": {
      "description": ""
    },
    "container": null,
    "quantity": 1,
    "weight": {
      "value": 0,
      "units": "lb"
    },
    "price": {
      "value": 4000,
      "denomination": "gp"
    },
    "rarity": "rare",
    "attunement": "",
    "attuned": false,
    "equipped": false,
    "armor": {
      "value": null
    },
    "cover": null,
    "crewed": false,
    "hp": {
      "value": null,
      "max": null,
      "dt": null,
      "conditions": ""
    },
    "type": {
      "value": "",
      "baseItem": ""
    },
    "ammunition": {},
    "damage": {
      "base": {
        "number": null,
        "denomination": 0,
        "types": [],
        "custom": {
          "enabled": false
        },
        "scaling": {
          "number": 1
        },
        "bonus": ""
      },
      "versatile": {
        "number": null,
        "denomination": null,
        "types": [],
        "custom": {
          "enabled": false
        },
        "scaling": {
          "number": 1
        }
      }
    },
    "magicalBonus": 1,
    "properties": [
      "mgc"
    ],
    "proficient": null,
    "range": {
      "value": null,
      "long": null,
      "reach": null,
      "units": ""
    },
    "mastery": ""
  },
  "effects": [
    {
      "type": "enchantment",
      "name": "Dragon Slayer",
      "img": "systems/dnd5e/icons/spell-tiers/spell3.webp",
      "disabled": true,
      "_id": "ZveR6kPKafjcwQdY",
      "system": {},
      "changes": [
        {
          "key": "name",
          "mode": 5,
          "value": "{} of Dragon SLaying",
          "priority": 50
        },
        {
          "key": "system.properties",
          "mode": 2,
          "value": "mgc",
          "priority": 20
        }
      ],
      "duration": {
        "startTime": null,
        "seconds": null,
        "combat": null,
        "rounds": null,
        "turns": null,
        "startRound": null,
        "startTurn": null
      },
      "description": "",
      "origin": null,
      "tint": "#ffffff",
      "transfer": false,
      "statuses": [],
      "sort": 0,
      "flags": {
        "dae": {
          "enableCondition": "",
          "disableCondition": "",
          "stackable": "multi",
          "showIcon": false,
          "durationExpression": "",
          "macroRepeat": "none",
          "specialDuration": []
        },
        "core": {
          "overlay": false
        },
        "ActiveAuras": {
          "isAura": false,
          "aura": "None",
          "nameOverride": "",
          "radius": "",
          "alignment": "",
          "type": "",
          "customCheck": "",
          "ignoreSelf": false,
          "height": false,
          "hidden": false,
          "displayTemp": false,
          "hostile": false,
          "onlyOnce": false,
          "wallsBlock": "system"
        }
      },
      "_stats": {
        "compendiumSource": null,
        "duplicateSource": null,
        "coreVersion": "12.331",
        "systemId": "dnd5e",
        "systemVersion": "4.1.2",
        "createdTime": null,
        "modifiedTime": 1734180887427,
        "lastModifiedBy": "Zl1BOUaPLwDEujaL"
      },
      "_key": "!items.effects!E8qbHLTWiAhyDT17.ZveR6kPKafjcwQdY"
    }
  ],
  "folder": null,
  "flags": {
    "dnd5e": {
      "riders": {
        "activity": [
          "TieUNbj2BQzgRlzt"
        ],
        "effect": []
      }
    },
    "tidy5e-sheet": {
      "section": "",
      "actionSection": ""
    },
    "midi-qol": {
      "AoETargetType": "any",
      "AoETargetTypeIncludeSelf": true,
      "autoTarget": "default",
      "rollAttackPerTarget": "default",
      "removeAttackDamageButtons": "default",
      "itemCondition": "",
      "reactionCondition": "",
      "otherCondition": "",
      "effectCondition": ""
    },
    "midiProperties": {
      "autoFailFriendly": false,
      "autoSaveFriendly": false,
      "magicdam": false,
      "magiceffect": false,
      "noConcentrationCheck": false,
      "toggleEffect": false,
      "ignoreTotalCover": false,
      "idr": false,
      "idi": false,
      "idv": false,
      "ida": false
    }
  },
  "_stats": {
    "compendiumSource": null,
    "duplicateSource": null,
    "coreVersion": "12.331",
    "systemId": "dnd5e",
    "systemVersion": "4.1.2",
    "createdTime": 1734179978427,
    "modifiedTime": 1734180902392,
    "lastModifiedBy": "Zl1BOUaPLwDEujaL"
  },
  "ownership": {
    "default": 0,
    "Zl1BOUaPLwDEujaL": 3
  },
  "_id": "E8qbHLTWiAhyDT17",
  "sort": 100000,
  "_key": "!items!E8qbHLTWiAhyDT17"
}
