{
  "name": "Fleet of Foot 10.0.10",
  "type": "feat",
  "img": "icons/equipment/feet/boots-collared-simple-leather.webp",
  "effects": [
    {
      "_id": "xSoG3K2m1roXbzcS",
      "flags": {
        "dae": {
          "transfer": true,
          "stackable": "none",
          "specialDuration": [],
          "macroRepeat": "none",
          "selfTarget": false,
          "selfTargetAlways": false,
          "durationExpression": ""
        },
        "ActiveAuras": {
          "isAura": false,
          "ignoreSelf": false,
          "hidden": false,
          "height": false,
          "aura": "None",
          "radius": null
        },
        "core": {}
      },
      "changes": [
        {
          "key": "system.attributes.movement.walk",
          "value": "35",
          "mode": 4,
          "priority": 5
        }
      ],
      "disabled": false,
      "duration": {
        "startTime": null,
        "seconds": null,
        "combat": null,
        "rounds": null,
        "turns": null,
        "startRound": null,
        "startTurn": null
      },
      "origin": "Actor.ZaVJJWXkzU603fLE.Item.TtkLUp5AChMw5QLe",
      "tint": "#ffffff",
      "transfer": true,
      "name": "Fleet of Foot",
      "description": "",
      "statuses": [],
      "_stats": {
        "compendiumSource": null,
        "duplicateSource": null,
        "coreVersion": "12.331",
        "systemId": "dnd5e",
        "systemVersion": "4.2.2",
        "createdTime": null,
        "modifiedTime": null,
        "lastModifiedBy": null
      },
      "img": "icons/equipment/feet/boots-collared-simple-leather.webp",
      "type": "base",
      "system": {},
      "sort": 0,
      "_key": "!items.effects!k4v75aYkFEsddzN4.xSoG3K2m1roXbzcS"
    }
  ],
  "flags": {
    "core": {
      "sheetClass": "dnd5e.DynamicItemSheet5e",
      "sourceId": "Compendium.midi-qol.midiqol-sample-items.c9OSXfLd170kf3hS"
    },
    "dynamiceffects": {
      "effects": [
        {
          "modSpecKey": "data.attributes.speed.value",
          "value": "35 ft",
          "mode": "=",
          "id": 0,
          "itemId": "",
          "active": false
        }
      ],
      "alwaysActive": true,
      "equipActive": false
    },
    "dae": {
      "alwaysActive": true,
      "activeEquipped": false
    },
    "favtab": {
      "isFavorite": false
    },
    "magicitems": {
      "enabled": false,
      "equipped": false,
      "attuned": false,
      "charges": "0",
      "chargeType": "c1",
      "destroy": false,
      "destroyFlavorText": "reaches 0 charges: it crumbles into ashes and is destroyed.",
      "rechargeable": false,
      "recharge": "0",
      "rechargeType": "t1",
      "rechargeUnit": "r1",
      "sorting": "l"
    },
    "autoanimations": {
      "killAnim": false,
      "animLevel": false,
      "override": false,
      "animType": "t1",
      "animName": "",
      "bards": {
        "bardAnim": "a1",
        "bardTarget": true,
        "bardTargetAnim": "a1",
        "bardTargetColor": "a1",
        "bardSelf": true,
        "marker": true,
        "markerColor": "a1",
        "markerColorTarget": "a1"
      },
      "spellVar": "a1",
      "hmAnim": "a1",
      "rangedOptions": {
        "rangeDmgType": ""
      },
      "color": "n1",
      "spellOptions": {
        "spellLoops": 1
      },
      "uaStrikeType": "physical",
      "dtvar": "dt1",
      "divineSmite": {
        "dsEnable": false,
        "dsSelf": true,
        "dsSelfDelay": 0,
        "dsSelfColor": "a1",
        "dsTarget": true,
        "dsTargetDelay": 1250,
        "dsTargetColor": "a1"
      },
      "explosion": false,
      "exAnimLevel": false,
      "explodeVariant": "ev1",
      "impactVar": "a1",
      "explodeColor": "",
      "explodeRadius": "0",
      "explodeLoop": "1",
      "allSounds": {
        "explosion": {
          "audioExplodeEnabled": false,
          "file": "",
          "delay": 100,
          "volume": 0.25
        },
        "item": {
          "enableAudio": false,
          "file": "",
          "delay": 100,
          "volume": 0.25
        }
      },
      "selfRadius": "5",
      "animTint": "#ffffff",
      "auraOpacity": 0.75,
      "ctaOption": false,
      "teleDist": 30,
      "templates": {
        "tempType": "a1",
        "tempAnim": "",
        "tempColor": "",
        "tempLoop": 1,
        "customAnim": false,
        "customPath": ""
      }
    },
    "cf": {
      "id": "temp_1xw0kahfmt1",
      "color": "#000000"
    },
    "midiProperties": {
      "confirmTargets": "default",
      "autoFailFriendly": false,
      "autoSaveFriendly": false,
      "critOther": false,
      "offHandWeapon": false,
      "magicdam": false,
      "magiceffect": false,
      "noConcentrationCheck": false,
      "toggleEffect": false,
      "ignoreTotalCover": false,
      "idr": false,
      "idi": false,
      "idv": false,
      "ida": false
    },
    "midi-qol": {
      "rollAttackPerTarget": "default",
      "itemCondition": "",
      "effectCondition": "",
      "reactionCondition": "",
      "otherCondition": ""
    },
    "tidy5e-sheet": {
      "section": "",
      "actionSection": ""
    }
  },
  "system": {
    "description": {
      "value": "<h3><p><small><em>Race: Wood Elf</em></small></p><p></p><p>Your base walking speed increase<span>s to 35 feet.</span></p><p></p></h3>",
      "chat": ""
    },
    "source": {
      "custom": "",
      "revision": 1,
      "rules": "2024"
    },
    "uses": {
      "max": "",
      "spent": 0,
      "recovery": []
    },
    "type": {
      "value": "",
      "subtype": ""
    },
    "requirements": "Race: Wood Elf",
    "activities": {},
    "identifier": "fleet-of-foot-10010",
    "enchant": {},
    "prerequisites": {
      "level": null,
      "repeatable": false
    },
    "properties": [],
    "advancement": [],
    "cover": null,
    "crewed": false
  },
  "_stats": {
    "compendiumSource": "Compendium.midi-qol.midiqol-sample-items.c9OSXfLd170kf3hS",
    "duplicateSource": null,
    "coreVersion": "12.331",
    "systemId": "dnd5e",
    "systemVersion": "4.2.2",
    "createdTime": 1738555836908,
    "modifiedTime": 1738555836908,
    "lastModifiedBy": "Zl1BOUaPLwDEujaL"
  },
  "folder": "5Ok9Jbl5nOokCkqf",
  "_id": "k4v75aYkFEsddzN4",
  "sort": 800000,
  "ownership": {
    "default": 0,
    "Zl1BOUaPLwDEujaL": 3
  },
  "_key": "!items!k4v75aYkFEsddzN4"
}
