{
  "name": "GM Inspiration",
  "type": "feat",
  "img": "icons/magic/control/buff-luck-fortune-green.webp",
  "effects": [
    {
      "_id": "9kPKxYfLznahYDJe",
      "changes": [
        {
          "key": "flags.midi-qol.advantage.all",
          "mode": 5,
          "value": "1",
          "priority": 20
        }
      ],
      "disabled": false,
      "duration": {
        "startTime": null,
        "seconds": null,
        "combat": null,
        "rounds": null,
        "turns": null,
        "startRound": null,
        "startTurn": null
      },
      "origin": "Item.F58v9Hv37KF4JszF",
      "transfer": false,
      "flags": {
        "dae": {
          "stackable": false,
          "macroRepeat": "none",
          "specialDuration": [
            "1Action",
            "isSave",
            "isCheck",
            "isSkill"
          ],
          "transfer": false
        },
        "ActiveAuras": {
          "isAura": false,
          "radius": null,
          "aura": "None",
          "alignment": "",
          "type": "",
          "ignoreSelf": false,
          "height": false,
          "hidden": false,
          "hostile": false,
          "onlyOnce": false
        }
      },
      "tint": "#ffffff",
      "name": "GM Inspiration",
      "description": "",
      "statuses": [],
      "_stats": {
        "compendiumSource": null,
        "duplicateSource": null,
        "coreVersion": "12.331",
        "systemId": "dnd5e",
        "systemVersion": "4.2.2",
        "createdTime": null,
        "modifiedTime": null,
        "lastModifiedBy": null
      },
      "img": "icons/magic/control/buff-luck-fortune-green.webp",
      "type": "base",
      "system": {},
      "sort": 0,
      "_key": "!items.effects!ZVAOMo2eJdE5se3V.9kPKxYfLznahYDJe"
    }
  ],
  "flags": {
    "itemacro": {
      "macro": {
        "data": {
          "_id": null,
          "name": "Inspiration",
          "type": "script",
          "author": "g4WGw0lAZ3nIhapn",
          "img": "icons/svg/dice-target.svg",
          "scope": "global",
          "command": "actor.deleteEmbeddedDocuments(\"Item\", [item.id])",
          "folder": null,
          "sort": 0,
          "permission": {
            "default": 0
          },
          "flags": {}
        },
        "name": "GM Inspiration",
        "type": "script",
        "img": "icons/svg/dice-target.svg",
        "scope": "global",
        "command": "const version = \"10.0.10\";\ntry {\n    actor.deleteEmbeddedDocuments(\"Item\", [item.id]);\n} catch (err) {\n    console.error(`GM Inspiration ${version}`, err);\n}",
        "sort": 0,
        "ownership": {
          "default": 0
        },
        "flags": {},
        "_stats": {
          "systemId": null,
          "systemVersion": null,
          "coreVersion": null,
          "createdTime": null,
          "modifiedTime": null,
          "lastModifiedBy": null
        }
      }
    },
    "midi-qol": {
      "onUseMacroName": "[postActiveEffects]ItemMacro",
      "effectActivation": false,
      "rollAttackPerTarget": "default",
      "itemCondition": "",
      "effectCondition": "",
      "reactionCondition": "",
      "otherCondition": "",
      "AoETargetType": "any",
      "AoETargetTypeIncludeSelf": true,
      "autoTarget": "default",
      "removeAttackDamageButtons": "default"
    },
    "core": {
      "sourceId": "Item.F58v9Hv37KF4JszF"
    },
    "cf": {
      "id": "temp_1xw0kahfmt1",
      "color": "#000000"
    },
    "midiProperties": {
      "nodam": false,
      "fulldam": false,
      "halfdam": false,
      "rollOther": false,
      "critOther": false,
      "magicdam": false,
      "magiceffect": false,
      "concentration": false,
      "toggleEffect": false,
      "autoFailFriendly": false,
      "autoSaveFriendly": false,
      "offHandWeapon": false,
      "ignoreTotalCover": false,
      "confirmTargets": "default",
      "noConcentrationCheck": false,
      "idr": false,
      "idi": false,
      "idv": false,
      "ida": false
    },
    "magicitems": {
      "enabled": false,
      "equipped": false,
      "attuned": false,
      "charges": "0",
      "chargeType": "c1",
      "destroy": false,
      "destroyFlavorText": "reaches 0 charges: it crumbles into ashes and is destroyed.",
      "rechargeable": false,
      "recharge": "0",
      "rechargeType": "t1",
      "rechargeUnit": "r1",
      "sorting": "l"
    },
    "dnd5e": {
      "persistSourceMigration": true,
      "riders": {
        "activity": [],
        "effect": []
      }
    },
    "tidy5e-sheet": {
      "section": "",
      "actionSection": ""
    }
  },
  "system": {
    "description": {
      "value": "",
      "chat": ""
    },
    "source": {
      "custom": "",
      "revision": 1,
      "rules": "2024"
    },
    "uses": {
      "max": "",
      "spent": 0,
      "recovery": []
    },
    "type": {
      "value": "",
      "subtype": ""
    },
    "requirements": "",
    "activities": {
      "dnd5eactivity000": {
        "_id": "dnd5eactivity000",
        "type": "utility",
        "activation": {
          "type": "bonus",
          "value": 0,
          "condition": "",
          "override": false
        },
        "consumption": {
          "targets": [],
          "scaling": {
            "allowed": false,
            "max": ""
          },
          "spellSlot": true
        },
        "description": {
          "chatFlavor": ""
        },
        "duration": {
          "concentration": false,
          "value": "",
          "units": "inst",
          "special": "",
          "override": false
        },
        "effects": [
          {
            "_id": "9kPKxYfLznahYDJe"
          }
        ],
        "range": {
          "units": "self",
          "special": "",
          "override": false
        },
        "target": {
          "template": {
            "count": "",
            "contiguous": false,
            "type": "",
            "size": "",
            "width": "",
            "height": "",
            "units": ""
          },
          "affects": {
            "count": "",
            "type": "self",
            "choice": false,
            "special": ""
          },
          "prompt": false,
          "override": false
        },
        "uses": {
          "spent": 0,
          "max": "",
          "recovery": []
        },
        "roll": {
          "formula": "",
          "name": "",
          "prompt": false,
          "visible": false
        },
        "sort": 0,
        "useConditionText": "",
        "effectConditionText": "",
        "name": "",
        "macroData": {
          "name": "",
          "command": ""
        },
        "ignoreTraits": {
          "idi": false,
          "idr": false,
          "idv": false,
          "ida": false
        },
        "midiProperties": {
          "forceDialog": false,
          "confirmTargets": "default",
          "automationOnly": false,
          "identifier": "",
          "ignoreTraits": [],
          "triggeredActivityId": "none",
          "triggeredActivityConditionText": "",
          "triggeredActivityTargets": "targets",
          "triggeredActivityRollAs": "self",
          "autoTargetType": "any",
          "autoTargetAction": "default",
          "otherActivityCompatible": true
        }
      }
    },
    "identifier": "gm-inspiration-10010",
    "enchant": {},
    "prerequisites": {
      "level": null,
      "repeatable": false
    },
    "properties": [],
    "advancement": [],
    "cover": null,
    "crewed": false
  },
  "_stats": {
    "compendiumSource": "Item.F58v9Hv37KF4JszF",
    "duplicateSource": null,
    "coreVersion": "12.331",
    "systemId": "dnd5e",
    "systemVersion": "4.2.2",
    "createdTime": 1738555835389,
    "modifiedTime": 1738555835389,
    "lastModifiedBy": "Zl1BOUaPLwDEujaL"
  },
  "folder": "fZIl4G4qj3C894LI",
  "_id": "ZVAOMo2eJdE5se3V",
  "sort": 2100000,
  "ownership": {
    "default": 0,
    "Zl1BOUaPLwDEujaL": 3
  },
  "_key": "!items!ZVAOMo2eJdE5se3V"
}
