{
  "name": "Ice Knife",
  "system": {
    "description": {
      "value": "<p>You create a shard of ice and fling it at one creature within range. Make a ranged spell attack against the target. On a hit, the target takes 1d10 Piercing damage. Hit or miss, the shard then explodes. The target and each creature within 5 feet of it must succeed on a Dexterity saving throw or take 2d6 Cold damage.</p><p><strong>Using a Higher-Level Spell Slot. </strong>The Cold damage increases by 1d6 for each spell slot level above 1.</p><p>Midi Verison 12.4.16</p>",
      "chat": ""
    },
    "source": {
      "custom": "Midi 12.4.25",
      "rules": "2024",
      "revision": 1,
      "book": "",
      "page": "",
      "license": ""
    },
    "activation": {
      "type": "action",
      "condition": "",
      "value": null
    },
    "duration": {
      "value": "",
      "units": "inst"
    },
    "target": {
      "affects": {
        "type": "creature",
        "count": "1",
        "choice": false,
        "special": ""
      },
      "template": {
        "units": "",
        "contiguous": false,
        "type": ""
      }
    },
    "range": {
      "value": "60",
      "units": "ft",
      "special": ""
    },
    "uses": {
      "max": "",
      "recovery": [],
      "spent": 0
    },
    "level": 1,
    "school": "con",
    "properties": [
      "somatic",
      "material"
    ],
    "materials": {
      "value": "a drop of water or a piece of ice",
      "consumed": false,
      "cost": 0,
      "supply": 0
    },
    "preparation": {
      "mode": "prepared",
      "prepared": false
    },
    "activities": {
      "dnd5eactivity000": {
        "_id": "dnd5eactivity000",
        "type": "attack",
        "activation": {
          "type": "action",
          "value": null,
          "override": false
        },
        "consumption": {
          "targets": [],
          "scaling": {
            "allowed": false,
            "max": ""
          },
          "spellSlot": true
        },
        "description": {
          "chatFlavor": ""
        },
        "duration": {
          "units": "inst",
          "override": false,
          "concentration": false
        },
        "effects": [],
        "range": {
          "override": false
        },
        "target": {
          "prompt": true,
          "template": {
            "contiguous": false,
            "units": "ft"
          },
          "affects": {
            "choice": false
          },
          "override": false
        },
        "attack": {
          "ability": "",
          "bonus": "",
          "critical": {
            "threshold": null
          },
          "flat": false,
          "type": {
            "value": "ranged",
            "classification": "spell"
          }
        },
        "damage": {
          "critical": {
            "bonus": ""
          },
          "includeBase": true,
          "parts": [
            {
              "custom": {
                "enabled": false,
                "formula": ""
              },
              "number": 1,
              "denomination": 10,
              "bonus": "",
              "types": [
                "piercing"
              ],
              "scaling": {
                "mode": "",
                "number": 1
              }
            }
          ]
        },
        "uses": {
          "spent": 0,
          "recovery": [],
          "max": ""
        },
        "sort": 0,
        "useConditionText": "",
        "effectConditionText": "",
        "macroData": {
          "name": "",
          "command": ""
        },
        "ignoreTraits": {
          "idi": false,
          "idr": false,
          "idv": false,
          "ida": false
        },
        "midiProperties": {
          "ignoreTraits": [],
          "triggeredActivityId": "dnd5eactivity100",
          "triggeredActivityConditionText": "true",
          "triggeredActivityTargets": "targets",
          "triggeredActivityRollAs": "firstTarget",
          "forceDialog": false,
          "confirmTargets": "default",
          "automationOnly": false,
          "identifier": "",
          "autoTargetType": "any",
          "autoTargetAction": "default",
          "otherActivityCompatible": true
        },
        "attackMode": "",
        "ammunition": "",
        "otherActivityId": "none",
        "otherActivityUuid": "",
        "name": ""
      },
      "dnd5eactivity100": {
        "_id": "dnd5eactivity100",
        "type": "save",
        "activation": {
          "type": "",
          "value": null,
          "override": true,
          "condition": ""
        },
        "consumption": {
          "targets": [],
          "scaling": {
            "allowed": false,
            "max": ""
          },
          "spellSlot": false
        },
        "description": {
          "chatFlavor": ""
        },
        "duration": {
          "units": "inst",
          "override": false,
          "concentration": false
        },
        "effects": [],
        "range": {
          "override": true,
          "units": "self",
          "special": ""
        },
        "target": {
          "prompt": false,
          "template": {
            "contiguous": false,
            "units": "ft",
            "type": "radius",
            "size": "5",
            "count": ""
          },
          "affects": {
            "choice": false,
            "count": "",
            "type": "any",
            "special": ""
          },
          "override": true
        },
        "damage": {
          "onSave": "none",
          "parts": [
            {
              "custom": {
                "enabled": false,
                "formula": ""
              },
              "number": 2,
              "denomination": 6,
              "bonus": "",
              "types": [
                "cold"
              ],
              "scaling": {
                "mode": "whole",
                "number": 1,
                "formula": ""
              }
            }
          ],
          "critical": {
            "allow": false
          }
        },
        "save": {
          "ability": [
            "dex"
          ],
          "dc": {
            "calculation": "spellcasting",
            "formula": ""
          }
        },
        "uses": {
          "spent": 0,
          "recovery": [],
          "max": ""
        },
        "sort": 0,
        "name": "Shard Explosion",
        "useConditionText": "",
        "effectConditionText": "",
        "macroData": {
          "name": "",
          "command": ""
        },
        "ignoreTraits": {
          "idi": false,
          "idr": false,
          "idv": false,
          "ida": false
        },
        "midiProperties": {
          "ignoreTraits": [],
          "triggeredActivityId": "none",
          "triggeredActivityConditionText": "",
          "triggeredActivityTargets": "targets",
          "triggeredActivityRollAs": "self",
          "forceDialog": false,
          "confirmTargets": "default",
          "automationOnly": true,
          "identifier": "",
          "autoTargetType": "any",
          "autoTargetAction": "default",
          "otherActivityCompatible": true
        }
      }
    },
    "identifier": "ice-knife",
    "sourceClass": "bard",
    "ability": ""
  },
  "type": "spell",
  "img": "icons/magic/water/projectile-ice-shard.webp",
  "effects": [],
  "folder": null,
  "flags": {
    "dnd5e": {
      "riders": {
        "activity": [],
        "effect": []
      },
      "last": {
        "dnd5eactivity100": {
          "damageType": {
            "0": "cold"
          }
        },
        "dnd5eactivity000": {
          "damageType": {
            "0": "piercing"
          }
        }
      }
    },
    "tidy5e-sheet": {
      "section": "",
      "actionSection": ""
    },
    "midi-qol": {
      "fumbleThreshold": null,
      "AoETargetType": "any",
      "AoETargetTypeIncludeSelf": true,
      "autoTarget": "default",
      "rollAttackPerTarget": "default",
      "removeAttackDamageButtons": "default",
      "itemCondition": "",
      "reactionCondition": "",
      "otherCondition": "",
      "effectCondition": ""
    },
    "midiProperties": {
      "autoFailFriendly": false,
      "autoSaveFriendly": false,
      "magicdam": false,
      "magiceffect": false,
      "noConcentrationCheck": false,
      "toggleEffect": false,
      "ignoreTotalCover": false,
      "idr": false,
      "idi": false,
      "idv": false,
      "ida": false
    }
  },
  "_stats": {
    "compendiumSource": null,
    "duplicateSource": null,
    "coreVersion": "12.331",
    "systemId": "dnd5e",
    "systemVersion": "4.2.2",
    "createdTime": 1738555850287,
    "modifiedTime": 1738555855096,
    "lastModifiedBy": "Zl1BOUaPLwDEujaL"
  },
  "ownership": {
    "default": 0,
    "Zl1BOUaPLwDEujaL": 3
  },
  "_id": "eIZJYUwjZLKk7Qui",
  "sort": 800000,
  "_key": "!items!eIZJYUwjZLKk7Qui"
}
