{
  "name": "Longsword of Life Stealing v4",
  "type": "weapon",
  "img": "icons/creatures/claws/claw-curved-poison-purple.webp",
  "effects": [],
  "flags": {
    "midi-qol": {
      "criticalThreshold": "20",
      "onUseMacroName": "[postActiveEffects]ItemMacro",
      "effectActivation": true,
      "fumbleThreshold": null,
      "rollAttackPerTarget": "default",
      "removeAttackDamageButtons": "default",
      "itemCondition": "",
      "otherCondition": "",
      "effectCondition": "",
      "reactionCondition": "",
      "AoETargetType": "any",
      "AoETargetTypeIncludeSelf": true,
      "autoTarget": "default"
    },
    "magicitems": {
      "enabled": false,
      "equipped": false,
      "attuned": false,
      "charges": "0",
      "chargeType": "c1",
      "destroy": false,
      "destroyFlavorText": "reaches 0 charges: it crumbles into ashes and is destroyed.",
      "rechargeable": false,
      "recharge": "0",
      "rechargeType": "t1",
      "rechargeUnit": "r1",
      "sorting": "l"
    },
    "core": {
      "sourceId": "Compendium.dnd5e.items.wtctR6tCcYbQPiS0"
    },
    "itemacro": {
      "macro": {
        "data": {
          "_id": null,
          "name": "Longsword of Life Stealing MQ0.8.85",
          "type": "script",
          "author": "devnIbfBHb74U9Zv",
          "img": "icons/svg/dice-target.svg",
          "scope": "global",
          "command": "if (args[0].diceRoll === 20 && args[0].itemData.data.attunement !== 1 && args[0].otherDamageTotal > (actor.data.data.attributes.hp.temp ?? 0)) {\n    await actor.update({\"data.attributes.hp.temp\": args[0].otherDamageTotal})\n}",
          "folder": null,
          "sort": 0,
          "permission": {
            "default": 0
          },
          "flags": {}
        },
        "name": "Longsword of Life Stealing 10.0.10",
        "type": "script",
        "img": "icons/svg/dice-target.svg",
        "scope": "global",
        "command": "const version = \"10.0.10\";\ntry {\n    if (args[0].diceRoll === 20 && args[0].itemData.system.attunement !== 1 && args[0].otherDamageTotal > (actor.system.attributes.hp.temp ?? 0)) {\n        ChatMessage.create({content: `${args[0].item.name} steals ${args[0].otherDamageTotal} HP`})\n        await actor.update({\"system.attributes.hp.temp\": args[0].otherDamageTotal})\n    }\n} catch (err)  {\n    console.error(`${args[0].itemData.name} - Longsword of Life Stealing ${version}`, err);\n}",
        "sort": 0,
        "ownership": {
          "default": 0
        },
        "flags": {},
        "_stats": {
          "systemId": null,
          "systemVersion": null,
          "coreVersion": null,
          "createdTime": null,
          "modifiedTime": null,
          "lastModifiedBy": null
        }
      }
    },
    "betterRolls5e": {
      "quickDamage": {
        "context": {
          "0": ""
        },
        "value": {
          "0": true
        },
        "altValue": {
          "0": true
        }
      },
      "quickOther": {
        "context": "",
        "value": true,
        "altValue": true
      },
      "quickDesc": {
        "value": false,
        "altValue": false
      },
      "quickAttack": {
        "value": true,
        "altValue": true
      },
      "quickProperties": {
        "value": true,
        "altValue": true
      },
      "quickVersatile": {
        "value": false,
        "altValue": false
      },
      "quickFlavor": {
        "value": true,
        "altValue": true
      },
      "quickCharges": {
        "value": {
          "quantity": false
        },
        "altValue": {
          "quantity": false
        }
      }
    },
    "cf": {
      "id": "temp_mxc6kjqa6kp",
      "color": "#000000"
    },
    "midiProperties": {
      "nodam": false,
      "halfdam": false,
      "fulldam": false,
      "critOther": false,
      "concentration": false,
      "rollOther": true,
      "magicdam": false,
      "magiceffect": false,
      "toggleEffect": false,
      "autoFailFriendly": false,
      "autoSaveFriendly": false,
      "offHandWeapon": false,
      "ignoreTotalCover": false,
      "confirmTargets": "default",
      "noConcentrationCheck": false,
      "idr": false,
      "idi": false,
      "idv": false,
      "ida": false
    },
    "dae": {
      "macro": {
        "name": "Longsword of Life Stealing v4",
        "img": "icons/creatures/claws/claw-curved-poison-purple.webp",
        "type": "script",
        "scope": "global",
        "command": "const version = \"12.4.7\";\ntry {\n    if (args[0].otherDamageTotal > (actor.system.attributes.hp.temp ?? 0)) {\n        ChatMessage.create({content: `${rolledItem.name} steals ${args[0].otherDamageTotal} HP`})\n        await actor.update({\"system.attributes.hp.temp\": args[0].otherDamageTotal})\n    }\n} catch (err)  {\n    console.error(`${rolledItem.name} ${version}`, err);\n}",
        "author": "Zl1BOUaPLwDEujaL",
        "ownership": {
          "default": 3
        },
        "_id": null,
        "folder": null,
        "sort": 0,
        "flags": {},
        "_stats": {
          "systemId": "dnd5e",
          "systemVersion": "4.0.4",
          "coreVersion": "12.331",
          "createdTime": null,
          "modifiedTime": null,
          "lastModifiedBy": null,
          "compendiumSource": null,
          "duplicateSource": null
        }
      }
    },
    "dnd5e": {
      "persistSourceMigration": true,
      "riders": {
        "activity": [],
        "effect": []
      },
      "last": {
        "dnd5eactivity000": {
          "attackMode": "oneHanded",
          "damageType": {
            "0": "slashing"
          }
        },
        "OksXk6wnkGm8Prna": {
          "damageType": {
            "0": "necrotic"
          }
        }
      }
    },
    "tidy5e-sheet": {
      "section": "",
      "actionSection": ""
    }
  },
  "system": {
    "description": {
      "value": "<p><em>(Requires attunement)</em></p><p>When you attack a creature with this magic weapon and roll a 20 on the attack roll, that target takes an extra 3d6 necrotic damage, provided that the target isn't a construct or an undead. You gain temporary hit points equal to the extra damage dealt.</p><p><strong>midi-qo</strong>l: requires dnd5e 3.2+</p>",
      "chat": ""
    },
    "source": {
      "custom": "DMG pg. 206",
      "revision": 1,
      "rules": "2024"
    },
    "quantity": 1,
    "weight": {
      "value": 3,
      "units": "lb"
    },
    "price": {
      "value": 1000,
      "denomination": "gp"
    },
    "attunement": "required",
    "rarity": "rare",
    "identified": true,
    "cover": null,
    "crewed": false,
    "range": {
      "value": null,
      "long": null,
      "units": "ft",
      "reach": null
    },
    "uses": {
      "max": "",
      "spent": 0,
      "recovery": []
    },
    "damage": {
      "versatile": {
        "number": 1,
        "denomination": 10,
        "bonus": "",
        "types": [],
        "custom": {
          "enabled": false,
          "formula": ""
        },
        "scaling": {
          "mode": "",
          "number": null,
          "formula": ""
        }
      },
      "base": {
        "number": 1,
        "denomination": 8,
        "bonus": "",
        "types": [
          "slashing"
        ],
        "custom": {
          "enabled": false,
          "formula": ""
        },
        "scaling": {
          "mode": "",
          "number": null,
          "formula": ""
        }
      }
    },
    "armor": {
      "value": 10
    },
    "hp": {
      "value": 0,
      "max": 0,
      "dt": null,
      "conditions": ""
    },
    "properties": [
      "mgc",
      "ver"
    ],
    "proficient": 0,
    "unidentified": {
      "description": ""
    },
    "type": {
      "value": "martialM",
      "baseItem": ""
    },
    "activities": {
      "dnd5eactivity000": {
        "_id": "dnd5eactivity000",
        "type": "attack",
        "activation": {
          "type": "action",
          "value": 1,
          "condition": "workflow.diceRoll === 20 && !([\"construct\", \"undead\"].includes(raceOrType)) && item.attunement !== CONFIG.DND5E.attunementTypes.REQUIRED",
          "override": false
        },
        "consumption": {
          "targets": [],
          "scaling": {
            "allowed": false,
            "max": ""
          },
          "spellSlot": true
        },
        "description": {
          "chatFlavor": ""
        },
        "duration": {
          "concentration": false,
          "value": "",
          "units": "inst",
          "special": "",
          "override": false
        },
        "effects": [],
        "range": {
          "units": "ft",
          "special": "",
          "override": false
        },
        "target": {
          "template": {
            "count": "",
            "contiguous": false,
            "type": "",
            "size": "",
            "width": "",
            "height": "",
            "units": ""
          },
          "affects": {
            "count": "",
            "type": "",
            "choice": false,
            "special": ""
          },
          "prompt": true,
          "override": false
        },
        "uses": {
          "spent": 0,
          "max": "",
          "recovery": []
        },
        "attack": {
          "ability": "",
          "bonus": "",
          "critical": {
            "threshold": null
          },
          "flat": false,
          "type": {
            "value": "melee",
            "classification": "weapon"
          }
        },
        "damage": {
          "critical": {
            "bonus": ""
          },
          "includeBase": true,
          "parts": []
        },
        "sort": 0,
        "useConditionText": "",
        "effectConditionText": "",
        "attackMode": "oneHanded",
        "ammunition": "",
        "otherActivityUuid": "",
        "name": "",
        "macroData": {
          "name": "",
          "command": ""
        },
        "ignoreTraits": {
          "idi": false,
          "idr": false,
          "idv": false,
          "ida": false
        },
        "midiProperties": {
          "forceDialog": false,
          "confirmTargets": "default",
          "automationOnly": false,
          "identifier": "",
          "ignoreTraits": [],
          "triggeredActivityId": "none",
          "triggeredActivityConditionText": "",
          "triggeredActivityTargets": "targets",
          "triggeredActivityRollAs": "self",
          "autoTargetType": "any",
          "autoTargetAction": "default",
          "otherActivityCompatible": true
        },
        "otherActivityId": "OksXk6wnkGm8Prna",
        "img": "",
        "appliedEffects": []
      },
      "OksXk6wnkGm8Prna": {
        "type": "damage",
        "_id": "OksXk6wnkGm8Prna",
        "sort": 0,
        "activation": {
          "type": "special",
          "value": null,
          "override": false,
          "condition": ""
        },
        "consumption": {
          "scaling": {
            "allowed": false
          },
          "spellSlot": true,
          "targets": []
        },
        "description": {
          "chatFlavor": ""
        },
        "duration": {
          "units": "inst",
          "concentration": false,
          "override": false
        },
        "effects": [],
        "range": {
          "override": false
        },
        "target": {
          "template": {
            "contiguous": false,
            "units": "ft",
            "type": ""
          },
          "affects": {
            "choice": false,
            "count": "1",
            "type": "creature",
            "special": ""
          },
          "override": false,
          "prompt": true
        },
        "uses": {
          "spent": 0,
          "recovery": [],
          "max": ""
        },
        "damage": {
          "critical": {
            "allow": false
          },
          "parts": [
            {
              "custom": {
                "enabled": false,
                "formula": ""
              },
              "number": 3,
              "denomination": 6,
              "bonus": "",
              "types": [
                "necrotic"
              ],
              "scaling": {
                "number": 1
              }
            }
          ]
        },
        "useConditionText": "isAttuned && w.d20AttackRoll === 20 && ![\"undead\", \"construct\"].includes(raceOrType)",
        "effectConditionText": "",
        "name": "Necrotic Damage",
        "macroData": {
          "name": "",
          "command": ""
        },
        "ignoreTraits": {
          "idi": false,
          "idr": false,
          "idv": false,
          "ida": false
        },
        "midiProperties": {
          "forceDialog": false,
          "confirmTargets": "default",
          "automationOnly": false,
          "identifier": "",
          "ignoreTraits": [],
          "triggeredActivityId": "none",
          "triggeredActivityConditionText": "",
          "triggeredActivityTargets": "targets",
          "triggeredActivityRollAs": "self",
          "autoTargetType": "any",
          "autoTargetAction": "default",
          "otherActivityCompatible": true
        }
      }
    },
    "identifier": "longsword-of-life-stealing-11438",
    "container": null,
    "ammunition": {},
    "magicalBonus": null,
    "mastery": "",
    "attuned": true,
    "equipped": false
  },
  "_stats": {
    "compendiumSource": "Compendium.dnd5e.items.wtctR6tCcYbQPiS0",
    "duplicateSource": null,
    "coreVersion": "12.331",
    "systemId": "dnd5e",
    "systemVersion": "4.2.2",
    "createdTime": 1738555836908,
    "modifiedTime": 1738928783383,
    "lastModifiedBy": "Zl1BOUaPLwDEujaL"
  },
  "folder": "5Ok9Jbl5nOokCkqf",
  "_id": "8hCyRx0oaTPrM2MM",
  "sort": 150000,
  "ownership": {
    "default": 0,
    "Zl1BOUaPLwDEujaL": 3
  },
  "_key": "!items!8hCyRx0oaTPrM2MM"
}
