{
  "name": "Mace of Disruption v4",
  "type": "weapon",
  "img": "icons/weapons/maces/shortmace-ornate-gold.webp",
  "system": {
    "description": {
      "value": "<p>(<em>Requires attunement</em>)</p><p>When you hit a fiend or an undead with this magic weapon, that creature takes an extra 2d6 radiant damage. If the target has 25 hit points or fewer after taking this damage, it must succeed on a DC 15 Wisdom saving throw or be destroyed. On a successful save, the creature becomes frightened of you until the end of your next turn.</p><p>While you hold this weapon, it sheds bright light in a 20-foot radius and dim light for an additional 20 feet.</p>",
      "chat": ""
    },
    "source": {
      "custom": "DMG pg. 179",
      "revision": 1,
      "rules": "2014"
    },
    "identified": true,
    "unidentified": {
      "description": "",
      "name": "Unidentified Weapon"
    },
    "container": null,
    "quantity": 1,
    "weight": {
      "value": 4,
      "units": "lb"
    },
    "price": {
      "value": 0,
      "denomination": "gp"
    },
    "rarity": "rare",
    "attunement": "required",
    "cover": null,
    "crewed": false,
    "range": {
      "value": null,
      "long": 0,
      "units": "ft",
      "reach": null
    },
    "uses": {
      "max": "",
      "recovery": [
        {
          "period": "lr",
          "type": "recoverAll"
        }
      ],
      "spent": null
    },
    "damage": {
      "versatile": {
        "number": null,
        "denomination": null,
        "bonus": "",
        "types": [],
        "custom": {
          "enabled": false,
          "formula": ""
        },
        "scaling": {
          "mode": "",
          "number": null,
          "formula": ""
        }
      },
      "base": {
        "number": 1,
        "denomination": 6,
        "bonus": "@mod",
        "types": [
          "bludgeoning"
        ],
        "custom": {
          "enabled": false,
          "formula": ""
        },
        "scaling": {
          "mode": "",
          "number": null,
          "formula": ""
        }
      }
    },
    "armor": {
      "value": 10
    },
    "hp": {
      "value": 0,
      "max": 0,
      "dt": null,
      "conditions": ""
    },
    "type": {
      "value": "simpleM",
      "baseItem": ""
    },
    "magicalBonus": null,
    "properties": [
      "mgc"
    ],
    "proficient": null,
    "activities": {
      "dnd5eactivity000": {
        "_id": "dnd5eactivity000",
        "type": "attack",
        "activation": {
          "type": "action",
          "value": 1,
          "condition": "",
          "override": false
        },
        "consumption": {
          "targets": [],
          "scaling": {
            "allowed": false,
            "max": ""
          },
          "spellSlot": true
        },
        "description": {
          "chatFlavor": ""
        },
        "duration": {
          "concentration": false,
          "value": "",
          "units": "inst",
          "special": "",
          "override": false
        },
        "effects": [
          {
            "_id": "pPEnuMAZAOYburjB"
          }
        ],
        "range": {
          "value": "5",
          "units": "ft",
          "special": "",
          "override": false
        },
        "target": {
          "template": {
            "count": "",
            "contiguous": false,
            "type": "",
            "size": "",
            "width": "",
            "height": "",
            "units": ""
          },
          "affects": {
            "count": "1",
            "type": "creature",
            "choice": false,
            "special": ""
          },
          "prompt": true,
          "override": false
        },
        "uses": {
          "spent": null,
          "max": "",
          "recovery": []
        },
        "attack": {
          "ability": "str",
          "bonus": "10",
          "critical": {
            "threshold": null
          },
          "flat": false,
          "type": {
            "value": "melee",
            "classification": "weapon"
          }
        },
        "damage": {
          "critical": {
            "bonus": ""
          },
          "includeBase": true,
          "parts": []
        },
        "sort": 0,
        "name": "Mace of Disruption Attack",
        "otherActivityUuid": "",
        "useConditionText": "",
        "effectConditionText": "",
        "attackMode": "oneHanded",
        "ammunition": "",
        "macroData": {
          "name": "",
          "command": ""
        },
        "ignoreTraits": {
          "idi": false,
          "idr": false,
          "idv": false,
          "ida": false
        },
        "midiProperties": {
          "forceDialog": false,
          "confirmTargets": "default",
          "automationOnly": false,
          "identifier": "",
          "ignoreTraits": [],
          "triggeredActivityId": "none",
          "triggeredActivityConditionText": "",
          "triggeredActivityTargets": "targets",
          "triggeredActivityRollAs": "self",
          "autoTargetType": "any",
          "autoTargetAction": "default",
          "otherActivityCompatible": true
        },
        "otherActivityId": ""
      },
      "dnd5eactivity100": {
        "_id": "dnd5eactivity100",
        "type": "save",
        "activation": {
          "type": "bonus",
          "value": 1,
          "condition": "",
          "override": false
        },
        "consumption": {
          "targets": [],
          "scaling": {
            "allowed": false,
            "max": ""
          },
          "spellSlot": true
        },
        "description": {
          "chatFlavor": ""
        },
        "duration": {
          "concentration": false,
          "value": "",
          "units": "inst",
          "special": "",
          "override": false
        },
        "effects": [
          {
            "_id": "WJ9LtGQ4aCdBv2he",
            "onSave": true
          }
        ],
        "range": {
          "value": "5",
          "units": "ft",
          "special": "",
          "override": false
        },
        "target": {
          "template": {
            "count": "",
            "contiguous": false,
            "type": "",
            "size": "",
            "width": "",
            "height": "",
            "units": ""
          },
          "affects": {
            "count": "3",
            "type": "creature",
            "choice": false,
            "special": ""
          },
          "prompt": true,
          "override": false
        },
        "uses": {
          "spent": 0,
          "max": "",
          "recovery": []
        },
        "damage": {
          "onSave": "full",
          "parts": [
            {
              "custom": {
                "enabled": false,
                "formula": ""
              },
              "number": 2,
              "denomination": 6,
              "bonus": "",
              "types": [
                "radiant"
              ],
              "scaling": {
                "number": 1
              }
            }
          ],
          "critical": {
            "allow": false
          }
        },
        "save": {
          "ability": [
            "wis"
          ],
          "dc": {
            "calculation": "",
            "formula": "15"
          }
        },
        "sort": 0,
        "name": "",
        "useConditionText": "isAttuned && [\"fiend\", \"undead\"].includes(raceOrType)",
        "effectConditionText": "isAttuned && [\"fiend\", \"undead\"].includes(raceOrType) && target.attributes.hp.value <= 25 && target.isHit && target.saved",
        "macroData": {
          "name": "",
          "command": ""
        },
        "ignoreTraits": {
          "idi": false,
          "idr": false,
          "idv": false,
          "ida": false
        },
        "midiProperties": {
          "forceDialog": false,
          "confirmTargets": "default",
          "automationOnly": false,
          "identifier": "",
          "ignoreTraits": [],
          "triggeredActivityId": "none",
          "triggeredActivityConditionText": "",
          "triggeredActivityTargets": "targets",
          "triggeredActivityRollAs": "self",
          "autoTargetType": "any",
          "autoTargetAction": "default",
          "otherActivityCompatible": true
        }
      }
    },
    "identifier": "mace-of-disruption-1165",
    "ammunition": {},
    "mastery": "",
    "attuned": true,
    "equipped": true
  },
  "effects": [
    {
      "_id": "WJ9LtGQ4aCdBv2he",
      "name": "Mace of Disruption",
      "changes": [],
      "disabled": false,
      "duration": {
        "startTime": null,
        "seconds": null,
        "combat": null,
        "rounds": 2,
        "turns": null,
        "startRound": null,
        "startTurn": null
      },
      "description": "",
      "origin": "Actor.DNO1UrgtFOtnRg52.Item.ZB5K8WmpEvG06smP",
      "tint": "#ffffff",
      "transfer": false,
      "statuses": [
        "frightened"
      ],
      "flags": {
        "dae": {
          "stackable": "noneName",
          "macroRepeat": "none",
          "specialDuration": [
            "turnEndSource"
          ],
          "transfer": false,
          "selfTarget": false,
          "selfTargetAlways": false,
          "durationExpression": "",
          "disableIncapacitated": false,
          "dontApply": false,
          "showIcon": false,
          "enableCondition": "",
          "disableCondition": ""
        },
        "ActiveAuras": {
          "isAura": false,
          "aura": "None",
          "radius": "",
          "alignment": "",
          "type": "",
          "ignoreSelf": false,
          "height": false,
          "hidden": false,
          "hostile": false,
          "onlyOnce": false,
          "nameOverride": "",
          "customCheck": "",
          "displayTemp": false,
          "wallsBlock": "system",
          "statuses": []
        },
        "dnd5e-helpers": {
          "rest-effect": "Ignore"
        },
        "core": {
          "overlay": false
        }
      },
      "_stats": {
        "compendiumSource": "Actor.BogmFuNh1wswTouJ.Item.6XzLslWBNChhYDxO.ActiveEffect.a9mFBJjGO0O0a3tJ",
        "duplicateSource": null,
        "coreVersion": "12.331",
        "systemId": "dnd5e",
        "systemVersion": "4.2.2",
        "createdTime": null,
        "modifiedTime": null,
        "lastModifiedBy": null
      },
      "img": "icons/weapons/maces/shortmace-ornate-gold.webp",
      "type": "base",
      "system": {},
      "sort": 0,
      "_key": "!items.effects!4Kas9caBquFJXNgm.WJ9LtGQ4aCdBv2he"
    }
  ],
  "folder": "5Ok9Jbl5nOokCkqf",
  "flags": {
    "magicitems": {
      "charges": "0",
      "chargeType": "c1",
      "recharge": "0",
      "rechargeType": "t1",
      "rechargeUnit": "r1",
      "enabled": false,
      "destroy": false,
      "rechargeable": false,
      "equipped": false,
      "attuned": false,
      "destroyFlavorText": "reaches 0 charges: it crumbles into ashes and is destroyed.",
      "sorting": "l"
    },
    "midi-qol": {
      "criticalThreshold": "20",
      "onUseMacroName": "[preDamageApplication]ItemMacro",
      "effecActivation": "[\"fiend\", \"undead\"].includes(\"@raceOrType\")",
      "effectActivation": true,
      "fumbleThreshold": null,
      "removeAttackDamageButtons": "default",
      "itemCondition": "",
      "reactionCondition": "",
      "otherCondition": "",
      "effectCondition": "isAttuned && [\"fiend\", \"undead\"].includes(raceOrType) && target.attributes.hp.value <= 25 && target.isHit && target.saved",
      "rollAttackPerTarget": "default"
    },
    "core": {},
    "scene-packer": {
      "sourceId": "Item.k7ObEq184E1MthES",
      "hash": "247f7913d64cc77e6f11d5e52b978964b4942e20"
    },
    "betterRolls5e": {
      "quickDamage": {
        "context": {
          "0": ""
        },
        "value": {
          "0": true
        },
        "altValue": {
          "0": true
        }
      },
      "quickOther": {
        "context": "",
        "value": true,
        "altValue": true
      },
      "quickDesc": {
        "value": false,
        "altValue": false
      },
      "quickAttack": {
        "value": true,
        "altValue": true
      },
      "quickSave": {
        "value": true,
        "altValue": true
      },
      "quickProperties": {
        "value": true,
        "altValue": true
      },
      "quickVersatile": {
        "value": false,
        "altValue": false
      },
      "quickFlavor": {
        "value": true,
        "altValue": true
      },
      "quickCharges": {
        "value": {
          "quantity": false
        },
        "altValue": {
          "quantity": false
        }
      }
    },
    "cf": {
      "id": "temp_mxc6kjqa6kp",
      "color": "#000000"
    },
    "midiProperties": {
      "nodam": false,
      "halfdam": false,
      "rollOther": false,
      "critOther": true,
      "magicdam": false,
      "magiceffect": false,
      "concentration": false,
      "toggleEffect": false,
      "fulldam": false,
      "autoFailFriendly": false,
      "autoSaveFriendly": false,
      "offHandWeapon": true,
      "ignoreTotalCover": false,
      "confirmTargets": "default",
      "saveDamage": "fulldam",
      "bonusSaveDamage": "fulldam",
      "otherSaveDamage": "fulldam",
      "noConcentrationCheck": false,
      "idr": false,
      "idi": false,
      "idv": false,
      "ida": false
    },
    "itemacro": {
      "macro": {
        "name": "Mace of Disruption 10.0.44",
        "type": "script",
        "img": "icons/svg/dice-target.svg",
        "scope": "global",
        "command": "// check the remaining hp <= 25 set to dead\nconst version = \"10.0.44\";\ntry {\n    for (let damageItem of workflow.damageList) {\n        if (damageItem.newHP <= 25 && args[0].failedSaveUuids.includes(damageItem.tokenUuid)) {\n            damageItem.hpDamage += damageItem.newHP;\n            damageItem.newHP = 0;\n        }\n    }\n} catch (err)  {\n    console.error(`${args[0].itemData.name} - Mace of Disruption ${version}`, err);\n}",
        "sort": 0,
        "ownership": {
          "default": 0
        },
        "flags": {},
        "_stats": {
          "systemId": null,
          "systemVersion": null,
          "coreVersion": null,
          "createdTime": null,
          "modifiedTime": null,
          "lastModifiedBy": null
        }
      }
    },
    "dae": {
      "macro": {
        "name": "Mace of Disruption 11.6.5",
        "img": "icons/magic/symbols/cog-shield-white-blue.webp",
        "type": "script",
        "scope": "global",
        "command": "// check the remaining hp <= 25 set to dead\nconst version = \"11.6.5\";\ntry {\nif (!rolledItem.system.attuned) return;\n    let damageItem = workflow.damageItem;\n    if (damageItem.newHP <= 25 && damageItem.newHP > 0 && args[0].failedSaveUuids.includes(damageItem.targetUuid)) {\n        const tokenDocument = fromUuidSync(damageItem.targetUuid);\n        if ([\"fiend\", \"undead\"].includes(tokenDocument.actor?.system.details?.type.value)) {\n            if (!MidiQOL.configSettings().useDamageDetail) damageItem.hpDamage += damageItem.newHP;\n            const extraDamage = {value: damageItem.newHP, active: {multiplier: 1}, type: \"none\"};\n            damageItem.damageDetail.push(extraDamage)\n            damageItem.rawDamageDetail.push(extraDamage);\n            damageItem.details.push(`${rolledItem.name} +${damageItem.newHP}`)\n        }\n    }\n} catch (err)  {\n    console.error(`${rolledItem.name} - Mace of Disruption ${version}`, err);\n}",
        "author": "Zl1BOUaPLwDEujaL",
        "ownership": {
          "default": 3
        },
        "_id": null,
        "folder": null,
        "sort": 0,
        "flags": {},
        "_stats": {
          "coreVersion": "12.331",
          "systemId": "dnd5e",
          "systemVersion": "4.0.2",
          "createdTime": null,
          "modifiedTime": null,
          "lastModifiedBy": null,
          "compendiumSource": null,
          "duplicateSource": null
        }
      }
    },
    "exportSource": {
      "world": "blank-not-migrated",
      "system": "dnd5e",
      "coreVersion": "12.329",
      "systemVersion": "3.3.1"
    },
    "dnd5e": {
      "dependents": [
        {
          "uuid": "Scene.GO63mgFDMhBfPVWf.Token.y8rDGEEuPTa8Oz4m.Actor.2W8ip8j0hvK2pQ7V.ActiveEffect.XHf0A7A30HGYRVkM"
        },
        {
          "uuid": "Scene.GO63mgFDMhBfPVWf.Token.y8rDGEEuPTa8Oz4m.Actor.2W8ip8j0hvK2pQ7V.ActiveEffect.1EocoPsXdlrd5zEb"
        }
      ],
      "riders": {
        "activity": [],
        "effect": []
      },
      "migratedUses": 0,
      "last": {
        "dnd5eactivity000": {
          "attackMode": "oneHanded",
          "damageType": {
            "0": "bludgeoning"
          }
        },
        "dnd5eactivity100": {
          "damageType": {
            "0": "radiant"
          }
        }
      }
    },
    "tidy5e-sheet": {
      "section": "",
      "actionSection": ""
    }
  },
  "_stats": {
    "compendiumSource": null,
    "duplicateSource": null,
    "coreVersion": "12.331",
    "systemId": "dnd5e",
    "systemVersion": "4.2.2",
    "createdTime": 1738558159932,
    "modifiedTime": 1738558159932,
    "lastModifiedBy": "Zl1BOUaPLwDEujaL"
  },
  "ownership": {
    "default": 0,
    "Zl1BOUaPLwDEujaL": 3
  },
  "_id": "4Kas9caBquFJXNgm",
  "sort": 0,
  "_key": "!items!4Kas9caBquFJXNgm"
}
