{
  "name": "Retribution v4",
  "type": "feat",
  "img": "icons/skills/wounds/blood-drip-droplet-red.webp",
  "effects": [],
  "flags": {
    "core": {
      "sourceId": "Item.GLSyh8aOTVIx8V9m"
    },
    "midi-qol": {
      "onUseMacroName": "",
      "rollAttackPerTarget": "default",
      "itemCondition": "",
      "effectCondition": "",
      "removeAttackDamageButtons": "default",
      "reactionCondition": "reaction === \"isDamaged\"",
      "otherCondition": "",
      "AoETargetType": "any",
      "AoETargetTypeIncludeSelf": true,
      "autoTarget": "default"
    },
    "itemacro": {
      "macro": {
        "data": {
          "_id": null,
          "name": "Bleed",
          "type": "script",
          "author": "B2lUbVpUws20WKZ6",
          "img": "icons/svg/dice-target.svg",
          "scope": "global",
          "command": "",
          "folder": null,
          "sort": 0,
          "permission": {
            "default": 0
          },
          "flags": {}
        },
        "name": "Retribution",
        "type": "script",
        "img": "icons/svg/dice-target.svg",
        "scope": "global",
        "command": "const version = \"10.0.33\"\ntry {\n    const actor = args[0].options?.actor;\n    const token = args[0].options?.token;\n    const target = fromUuidSync(args[0].tokenUuid);\n    \n    if (!actor || !token || !target) return;\n    const roll = getProperty(actor, \"flags.midi-qol.retributionDamage\")\n    const damageRoll = await new Roll(roll).roll({async: true});\n    await new MidiQOL.DamageOnlyWorkflow(actor, token, damageRoll.total, \"\", [target], damageRoll, {itemCardId: \"new\", itemData: actor.items.getName(\"Retribution\")});\n    // Could do a MidiQOL.completeItemUse with the fetched item instead\n} catch (err) {\n    console.error(`Retribution ${version}`, err);\n}",
        "sort": 0,
        "ownership": {
          "default": 0
        },
        "flags": {},
        "_stats": {
          "systemId": null,
          "systemVersion": null,
          "coreVersion": null,
          "createdTime": null,
          "modifiedTime": null,
          "lastModifiedBy": null
        }
      }
    },
    "exportSource": {
      "world": "testworld",
      "system": "dnd5e",
      "coreVersion": "0.8.9",
      "systemVersion": "1.4.3"
    },
    "magicitems": {
      "enabled": false,
      "equipped": false,
      "attuned": false,
      "charges": "0",
      "chargeType": "c1",
      "destroy": false,
      "destroyFlavorText": "reaches 0 charges: it crumbles into ashes and is destroyed.",
      "rechargeable": false,
      "recharge": "0",
      "rechargeType": "t1",
      "rechargeUnit": "r1",
      "sorting": "l"
    },
    "cf": {
      "id": "temp_1xw0kahfmt1"
    },
    "dae": {
      "macro": {
        "name": "Retribution 11.4.38",
        "img": "icons/skills/wounds/blood-drip-droplet-red.webp",
        "type": "script",
        "scope": "global",
        "command": "",
        "author": "Zl1BOUaPLwDEujaL",
        "ownership": {
          "default": 3
        },
        "_id": null,
        "folder": null,
        "sort": 0,
        "flags": {},
        "_stats": {
          "systemId": "dnd5e",
          "systemVersion": "4.0.4",
          "coreVersion": "12.331",
          "createdTime": null,
          "modifiedTime": null,
          "lastModifiedBy": null,
          "compendiumSource": null,
          "duplicateSource": null
        }
      }
    },
    "midiProperties": {
      "confirmTargets": "default",
      "autoFailFriendly": false,
      "autoSaveFriendly": false,
      "critOther": false,
      "offHandWeapon": false,
      "magicdam": false,
      "magiceffect": false,
      "noConcentrationCheck": false,
      "toggleEffect": false,
      "ignoreTotalCover": false,
      "idr": false,
      "idi": false,
      "idv": false,
      "ida": false
    },
    "dnd5e": {
      "persistSourceMigration": true,
      "riders": {
        "activity": [],
        "effect": []
      },
      "last": {
        "950FKwh6Uj6f9ygx": {
          "damageType": {
            "0": "force"
          }
        }
      }
    },
    "tidy5e-sheet": {
      "section": "",
      "actionSection": ""
    }
  },
  "system": {
    "description": {
      "value": "<p>If attacked do damage to the attacker.</p>",
      "chat": ""
    },
    "source": {
      "custom": "",
      "revision": 1,
      "rules": "2024"
    },
    "uses": {
      "max": "",
      "spent": 0,
      "recovery": []
    },
    "type": {
      "value": "monster",
      "subtype": ""
    },
    "requirements": "",
    "activities": {
      "950FKwh6Uj6f9ygx": {
        "type": "damage",
        "_id": "950FKwh6Uj6f9ygx",
        "sort": 0,
        "activation": {
          "type": "reaction",
          "value": null,
          "override": false,
          "condition": ""
        },
        "consumption": {
          "scaling": {
            "allowed": false
          },
          "spellSlot": true,
          "targets": []
        },
        "description": {
          "chatFlavor": ""
        },
        "duration": {
          "units": "inst",
          "concentration": false,
          "override": false
        },
        "effects": [],
        "range": {
          "override": false,
          "units": "touch",
          "special": ""
        },
        "target": {
          "template": {
            "contiguous": false,
            "units": "ft",
            "type": ""
          },
          "affects": {
            "choice": false,
            "count": "1",
            "type": "creature",
            "special": ""
          },
          "override": false,
          "prompt": true
        },
        "uses": {
          "spent": 0,
          "recovery": [],
          "max": ""
        },
        "damage": {
          "critical": {
            "allow": false
          },
          "parts": [
            {
              "custom": {
                "enabled": false,
                "formula": ""
              },
              "number": 1,
              "denomination": 12,
              "bonus": "",
              "types": [
                "force"
              ],
              "scaling": {
                "number": 1
              }
            }
          ]
        },
        "useConditionText": "",
        "effectConditionText": "",
        "name": "",
        "macroData": {
          "name": "",
          "command": ""
        },
        "ignoreTraits": {
          "idi": false,
          "idr": false,
          "idv": false,
          "ida": false
        },
        "midiProperties": {
          "forceDialog": false,
          "confirmTargets": "default",
          "automationOnly": false,
          "identifier": "",
          "ignoreTraits": [],
          "triggeredActivityId": "none",
          "triggeredActivityConditionText": "",
          "triggeredActivityTargets": "targets",
          "triggeredActivityRollAs": "self",
          "autoTargetType": "any",
          "autoTargetAction": "default",
          "otherActivityCompatible": true
        }
      }
    },
    "identifier": "retribution-11438",
    "enchant": {},
    "prerequisites": {
      "level": null,
      "repeatable": false
    },
    "properties": [],
    "advancement": [],
    "cover": null,
    "crewed": false
  },
  "_stats": {
    "compendiumSource": "Item.GLSyh8aOTVIx8V9m",
    "duplicateSource": null,
    "coreVersion": "12.331",
    "systemId": "dnd5e",
    "systemVersion": "4.2.2",
    "createdTime": 1738555835389,
    "modifiedTime": 1738555835389,
    "lastModifiedBy": "Zl1BOUaPLwDEujaL"
  },
  "folder": "fZIl4G4qj3C894LI",
  "_id": "gBR8DXR7RvuKN9Mi",
  "sort": 1200000,
  "ownership": {
    "default": 0,
    "Zl1BOUaPLwDEujaL": 3
  },
  "_key": "!items!gBR8DXR7RvuKN9Mi"
}
